<?xml version="1.0" standalone="no"?>
<!DOCTYPE svg PUBLIC "-//W3C//DTD SVG 1.1//EN" "http://www.w3.org/Graphics/SVG/1.1/DTD/svg11.dtd" >
<svg xmlns="http://www.w3.org/2000/svg">
<metadata>
This is a custom SVG webfont generated by Font Squirrel.
Copyright   : Digitized data copyright  20102011 Google Corporation
Foundry     : Ascender Corporation
Foundry URL : httpwwwascendercorpcom
</metadata>
<defs>
<font id="OpenSansBoldItalic" horiz-adv-x="1128" >
<font-face units-per-em="2048" ascent="1638" descent="-410" />
<missing-glyph horiz-adv-x="532" />
<glyph unicode=" "  horiz-adv-x="532" />
<glyph unicode="&#x09;" horiz-adv-x="532" />
<glyph unicode="&#xa0;" horiz-adv-x="532" />
<glyph unicode="!" horiz-adv-x="586" d="M25 115q0 90 53.5 144t150.5 54q68 0 109 -38t41 -107q0 -87 -55 -141t-144 -54q-73 0 -114 37.5t-41 104.5zM150 485l157 977h340l-256 -977h-241z" />
<glyph unicode="&#x22;" horiz-adv-x="928" d="M201 934l71 528h277l-152 -528h-196zM604 934l74 528h276l-151 -528h-199z" />
<glyph unicode="#" horiz-adv-x="1323" d="M41 408l18 206h277l70 232h-252l18 209h289l119 407h217l-117 -407h199l116 407h215l-116 -407h239l-18 -209h-279l-69 -232h258l-19 -206h-297l-116 -408h-220l117 408h-194l-115 -408h-215l113 408h-238zM553 614h197l69 232h-196z" />
<glyph unicode="$" d="M51 168v266q198 -107 404 -117l71 322q-163 61 -241 151t-78 214q0 173 127 279.5t350 121.5l35 151h139l-33 -151q166 -22 295 -90l-106 -232q-132 65 -242 74l-63 -299q131 -51 195 -99.5t97 -113t33 -149.5q0 -184 -125.5 -291.5t-367.5 -124.5l-39 -199h-140l44 201 q-209 12 -355 86zM502 1022q0 -79 80 -111l51 246q-62 -7 -96.5 -41t-34.5 -94zM594 322q63 9 102 45t39 98q0 46 -24.5 75.5t-59.5 43.5z" />
<glyph unicode="%" horiz-adv-x="1753" d="M115 885q0 169 55.5 311.5t148.5 214.5t216 72q137 0 211.5 -80t74.5 -238q0 -166 -56 -310t-151 -217t-217 -73q-139 0 -210.5 83.5t-71.5 236.5zM231 0l1088 1462h235l-1083 -1462h-240zM360 868q0 -96 56 -96q65 0 112 131t47 275q0 96 -57 96q-63 0 -110.5 -128.5 t-47.5 -277.5zM973 283q0 177 53 322.5t148 219.5t219 74q137 0 211.5 -78.5t74.5 -230.5q0 -167 -54 -313.5t-148 -220.5t-215 -74q-144 0 -216.5 78.5t-72.5 222.5zM1219 285q0 -97 55 -97q41 0 77 55t59.5 154.5t23.5 196.5q0 96 -58 96q-39 0 -75 -56t-59 -154t-23 -195 z" />
<glyph unicode="&#x26;" horiz-adv-x="1450" d="M68 358q0 145 78.5 248.5t273.5 200.5q-76 130 -76 258q0 195 117.5 307.5t316.5 112.5q169 0 266 -82.5t97 -224.5q0 -280 -365 -426l195 -263q44 57 80.5 121.5t78.5 173.5h300q-133 -313 -310 -497l205 -287h-350l-72 98q-175 -118 -403 -118q-209 0 -320.5 97.5 t-111.5 280.5zM383 387q0 -65 45.5 -108t116.5 -43q115 0 221 59l-225 328q-88 -51 -123 -104.5t-35 -131.5zM621 1085q0 -46 12 -92t29 -73q113 59 155.5 111t42.5 112q0 57 -30 82.5t-70 25.5q-66 0 -102.5 -46.5t-36.5 -119.5z" />
<glyph unicode="'" horiz-adv-x="522" d="M201 934l71 528h277l-152 -528h-196z" />
<glyph unicode="(" horiz-adv-x="694" d="M74 281q0 339 122.5 626.5t381.5 554.5h262q-255 -278 -377.5 -573.5t-122.5 -618.5q0 -308 117 -594h-234q-149 266 -149 605z" />
<glyph unicode=")" horiz-adv-x="694" d="M-147 -324q499 545 499 1192q0 307 -116 594h233q149 -264 149 -604q0 -342 -124 -630.5t-379 -551.5h-262z" />
<glyph unicode="*" horiz-adv-x="1116" d="M172 1141l86 237l338 -174l33 369l256 -51l-113 -353l387 29l-18 -254l-338 43l160 -336l-246 -73l-90 337l-197 -278l-207 164l275 248z" />
<glyph unicode="+" d="M109 612v219h366v369h219v-369h367v-219h-367v-364h-219v364h-366z" />
<glyph unicode="," horiz-adv-x="569" d="M-102 -264q74 167 194 502h285l8 -23q-118 -255 -262 -479h-225z" />
<glyph unicode="-" horiz-adv-x="659" d="M41 424l53 250h524l-53 -250h-524z" />
<glyph unicode="." horiz-adv-x="584" d="M25 115q0 90 53.5 144t150.5 54q68 0 109 -38t41 -107q0 -87 -55 -141t-144 -54q-73 0 -114 37.5t-41 104.5z" />
<glyph unicode="/" horiz-adv-x="862" d="M-90 0l809 1462h295l-809 -1462h-295z" />
<glyph unicode="0" d="M66 467q0 297 84 537t228 360.5t333 120.5q399 0 399 -473q0 -470 -168.5 -751t-472.5 -281q-198 0 -300.5 122t-102.5 365zM369 461q0 -115 27.5 -173.5t97.5 -58.5q81 0 150.5 106t116 301t46.5 386q0 111 -30.5 162t-92.5 51q-80 0 -149.5 -104t-117.5 -302t-48 -368z " />
<glyph unicode="1" d="M182 1114l566 348h249l-309 -1462h-305l180 829q35 152 76 287q-9 -8 -61.5 -47t-262.5 -170z" />
<glyph unicode="2" d="M-49 0l43 213l477 424q180 159 248.5 254.5t68.5 179.5q0 75 -41 114.5t-110 39.5q-66 0 -135.5 -33.5t-171.5 -118.5l-146 203q132 112 252 159.5t250 47.5q190 0 301 -98t111 -259q0 -107 -41 -201t-122.5 -188t-266.5 -245l-269 -222v-10h568l-54 -260h-962z" />
<glyph unicode="3" d="M14 59v267q84 -50 182 -75.5t191 -25.5q158 0 243 63.5t85 176.5q0 172 -258 172h-138l46 221h73q167 0 263 62t96 172q0 67 -43 104t-121 37q-134 0 -287 -100l-127 204q124 81 232.5 113.5t246.5 32.5q190 0 298 -90.5t108 -243.5q0 -156 -94.5 -262t-261.5 -135v-4 q131 -26 198.5 -106.5t67.5 -201.5q0 -133 -74 -238t-212 -163.5t-327 -58.5q-239 0 -387 79z" />
<glyph unicode="4" d="M-25 303l48 234l770 925h311l-195 -919h170l-51 -240h-170l-63 -303h-293l63 303h-590zM305 543h311l58 248q12 58 40 164t42 141h-6q-35 -63 -132 -181z" />
<glyph unicode="5" d="M27 61v269q174 -99 352 -99q154 0 241 71t87 194q0 94 -57.5 141t-166.5 47q-102 0 -213 -33l-104 78l207 733h755l-55 -262h-489l-88 -293q72 15 127 15q183 0 289 -103t106 -287q0 -167 -71.5 -292t-208.5 -192.5t-330 -67.5q-117 0 -218.5 23t-162.5 58z" />
<glyph unicode="6" d="M88 469q0 202 61 395.5t167.5 335t256.5 213.5t357 72q125 0 223 -27l-51 -246q-84 25 -191 25q-194 0 -313.5 -108t-185.5 -345h4q115 166 311 166q157 0 242.5 -97t85.5 -273q0 -169 -71 -313.5t-190.5 -215.5t-277.5 -71q-212 0 -320 127t-108 362zM383 422 q0 -91 40 -143t107 -52q99 0 161.5 94t62.5 236q0 71 -33.5 113.5t-102.5 42.5q-60 0 -114.5 -35.5t-87.5 -95.5t-33 -160z" />
<glyph unicode="7" d="M78 0l737 1202h-629l56 260h975l-41 -194l-752 -1268h-346z" />
<glyph unicode="8" d="M55 350q0 298 348 426q-165 132 -165 299q0 119 58 212.5t168 145.5t257 52q123 0 215.5 -42t141 -118t48.5 -174q0 -134 -80.5 -233.5t-230.5 -151.5q217 -141 217 -365q0 -122 -63.5 -218.5t-181 -149.5t-273.5 -53q-214 0 -336.5 100t-122.5 270zM352 383 q0 -81 50 -128.5t135 -47.5q93 0 147.5 53.5t54.5 138.5q0 73 -36.5 131.5t-120.5 112.5q-116 -45 -173 -107t-57 -153zM528 1094q0 -132 123 -201q185 72 185 221q0 68 -39.5 107t-102.5 39q-76 0 -121 -46.5t-45 -119.5z" />
<glyph unicode="9" d="M86 12v256q111 -41 227 -41q121 0 207.5 49t144 138.5t99.5 257.5h-4q-111 -158 -295 -158q-163 0 -252.5 103.5t-89.5 285.5q0 166 73 305.5t196 208t286 68.5q203 0 308.5 -123t105.5 -361q0 -280 -99 -533t-264 -370.5t-403 -117.5q-128 0 -240 32zM424 928 q0 -87 37.5 -131.5t105.5 -44.5q60 0 111.5 36.5t82 100t30.5 158.5q0 84 -35.5 137t-110.5 53q-65 0 -115.5 -42t-78 -114t-27.5 -153z" />
<glyph unicode=":" horiz-adv-x="584" d="M25 115q0 90 53.5 144t150.5 54q68 0 109 -38t41 -107q0 -87 -55 -141t-144 -54q-73 0 -114 37.5t-41 104.5zM207 940q0 92 55.5 145.5t149.5 53.5q68 0 108.5 -38.5t40.5 -107.5q0 -86 -54.5 -140t-144.5 -54q-72 0 -113.5 36.5t-41.5 104.5z" />
<glyph unicode=";" horiz-adv-x="584" d="M-102 -264q74 167 194 502h285l8 -23q-118 -255 -262 -479h-225zM207 940q0 92 55.5 145.5t149.5 53.5q68 0 108.5 -38.5t40.5 -107.5q0 -86 -54.5 -140t-144.5 -54q-72 0 -113.5 36.5t-41.5 104.5z" />
<glyph unicode="&#x3c;" d="M109 641v143l952 496v-240l-643 -317l643 -281v-239z" />
<glyph unicode="=" d="M109 418v219h952v-219h-952zM109 807v217h952v-217h-952z" />
<glyph unicode="&#x3e;" d="M109 203v239l643 281l-643 317v240l952 -496v-143z" />
<glyph unicode="?" horiz-adv-x="940" d="M166 115q0 91 55 144.5t150 53.5q68 0 108.5 -38t40.5 -107q0 -87 -55 -141t-143 -54q-74 0 -115 38t-41 104zM178 1358q230 125 445 125q177 0 280 -87.5t103 -244.5q0 -83 -28.5 -149.5t-82.5 -123t-190 -147.5q-64 -43 -96.5 -73t-52.5 -64.5t-38 -108.5h-258l14 78 q19 103 73.5 177t172.5 155q124 84 157.5 127t33.5 96q0 119 -133 119q-50 0 -106.5 -16t-201.5 -84z" />
<glyph unicode="@" horiz-adv-x="1753" d="M92 500q0 279 120.5 497t343 341.5t497.5 123.5q318 0 499 -163.5t181 -458.5q0 -173 -64 -321t-177.5 -231t-254.5 -83q-88 0 -144.5 38.5t-72.5 108.5h-6q-50 -77 -113 -112t-147 -35q-127 0 -198 79.5t-71 229.5q0 147 67.5 276.5t187.5 205t268 75.5q185 0 327 -55 l-106 -420q-11 -44 -19 -76.5t-8 -64.5q0 -68 58 -68q66 0 124 64t92.5 171t34.5 214q0 213 -123.5 325.5t-359.5 112.5q-203 0 -366.5 -94t-255 -266t-91.5 -392q0 -243 134 -380.5t376 -137.5q117 0 219.5 20t221.5 66v-186q-230 -90 -465 -90q-217 0 -378 85.5 t-246 241.5t-85 359zM713 526q0 -65 24.5 -102t69.5 -37q141 0 213 270l57 222q-36 10 -82 10q-82 0 -145.5 -51.5t-100 -137t-36.5 -174.5z" />
<glyph unicode="A" horiz-adv-x="1286" d="M-123 0l766 1468h373l147 -1468h-297l-24 348h-473l-172 -348h-320zM494 608h333l-26 350q-10 131 -10 253v36q-44 -120 -109 -254z" />
<glyph unicode="B" horiz-adv-x="1270" d="M53 0l309 1462h426q229 0 346 -81.5t117 -243.5q0 -150 -83 -247.5t-236 -129.5v-6q100 -26 159.5 -96.5t59.5 -180.5q0 -229 -153 -353t-423 -124h-522zM412 256h180q117 0 183.5 58t66.5 161q0 162 -183 162h-165zM545 883h149q121 0 181.5 48.5t60.5 139.5 q0 137 -170 137h-152z" />
<glyph unicode="C" horiz-adv-x="1253" d="M123 553q0 262 104 482.5t278 335t400 114.5q125 0 222 -22.5t208 -82.5l-118 -250q-106 59 -175 78t-137 19q-132 0 -237.5 -81t-169.5 -238.5t-64 -338.5q0 -167 68.5 -248t218.5 -81q146 0 338 77v-260q-199 -77 -400 -77q-254 0 -395 149.5t-141 423.5z" />
<glyph unicode="D" horiz-adv-x="1386" d="M53 0l309 1462h396q270 0 417.5 -143t147.5 -410q0 -280 -98 -486.5t-283.5 -314.5t-437.5 -108h-451zM412 256h106q148 0 258 76t172 223.5t62 337.5q0 154 -72.5 234.5t-208.5 80.5h-115z" />
<glyph unicode="E" horiz-adv-x="1110" d="M53 0l309 1462h818l-54 -254h-512l-67 -321h477l-55 -254h-477l-80 -377h512l-54 -256h-817z" />
<glyph unicode="F" horiz-adv-x="1087" d="M53 0l309 1462h814l-54 -254h-508l-79 -377h473l-56 -253h-473l-121 -578h-305z" />
<glyph unicode="G" horiz-adv-x="1413" d="M123 549q0 268 107 484.5t301 334t448 117.5q218 0 410 -99l-115 -251q-74 40 -148 64t-161 24q-153 0 -273.5 -83t-189 -236.5t-68.5 -330.5q0 -172 72.5 -252.5t222.5 -80.5q76 0 170 24l66 299h-267l56 258h563l-162 -762q-134 -46 -248.5 -62.5t-242.5 -16.5 q-259 0 -400 147t-141 422z" />
<glyph unicode="H" horiz-adv-x="1434" d="M53 0l309 1462h306l-121 -573h471l121 573h305l-309 -1462h-306l134 631h-471l-134 -631h-305z" />
<glyph unicode="I" horiz-adv-x="659" d="M53 0l312 1462h305l-312 -1462h-305z" />
<glyph unicode="J" horiz-adv-x="678" d="M-322 -150q88 -20 164 -20q99 0 160.5 60.5t89.5 191.5l293 1380h305l-303 -1423q-52 -245 -175.5 -357t-346.5 -112q-94 0 -187 27v253z" />
<glyph unicode="K" horiz-adv-x="1255" d="M53 0l309 1462h306l-152 -702l158 205l409 497h361l-594 -700l291 -762h-338l-211 592l-125 -70l-109 -522h-305z" />
<glyph unicode="L" horiz-adv-x="1061" d="M53 0l309 1462h306l-256 -1206h512l-54 -256h-817z" />
<glyph unicode="M" horiz-adv-x="1802" d="M53 0l309 1462h404l68 -1093h4l551 1093h423l-309 -1462h-280l145 692q53 247 105 441h-5l-569 -1133h-281l-61 1133h-4q-11 -88 -38 -231t-187 -902h-275z" />
<glyph unicode="N" horiz-adv-x="1546" d="M53 0l309 1462h357l340 -1077h4q12 76 39 217t180 860h274l-309 -1462h-342l-356 1106h-6l-4 -32q-32 -216 -66 -386l-145 -688h-275z" />
<glyph unicode="O" horiz-adv-x="1495" d="M123 537q0 265 99 487.5t273 341.5t402 119q255 0 395 -144t140 -403q0 -283 -99 -506.5t-271 -337.5t-396 -114q-256 0 -399.5 147.5t-143.5 409.5zM434 537q0 -147 66.5 -222t187.5 -75t220.5 87t155.5 246t56 357q0 142 -65 219.5t-183 77.5q-121 0 -222 -91.5 t-158.5 -251.5t-57.5 -347z" />
<glyph unicode="P" horiz-adv-x="1188" d="M53 0l309 1462h338q242 0 366 -106.5t124 -319.5q0 -241 -169.5 -378.5t-467.5 -137.5h-86l-109 -520h-305zM522 774h56q142 0 223.5 69t81.5 185q0 180 -195 180h-74z" />
<glyph unicode="Q" horiz-adv-x="1495" d="M123 537q0 265 99 487.5t273 341.5t402 119q255 0 395 -144t140 -403q0 -316 -122.5 -555.5t-334.5 -337.5l254 -393h-359l-178 328h-26q-256 0 -399.5 147.5t-143.5 409.5zM434 537q0 -147 66.5 -222t187.5 -75t220.5 87t155.5 246t56 357q0 142 -65 219.5t-183 77.5 q-121 0 -222 -91.5t-158.5 -251.5t-57.5 -347z" />
<glyph unicode="R" horiz-adv-x="1247" d="M53 0l309 1462h359q237 0 356 -102t119 -299q0 -158 -83 -271.5t-239 -168.5l261 -621h-332l-207 561h-119l-119 -561h-305zM530 813h78q131 0 204 57t73 174q0 82 -47.5 123t-149.5 41h-74z" />
<glyph unicode="S" horiz-adv-x="1085" d="M41 70v274q193 -108 358 -108q112 0 175 42.5t63 116.5q0 43 -13.5 75.5t-38.5 60.5t-124 102q-138 99 -194 196t-56 209q0 129 62 230.5t176.5 158t263.5 56.5q217 0 397 -99l-109 -233q-156 74 -288 74q-83 0 -136 -45t-53 -119q0 -61 33 -106.5t148 -120.5 q121 -80 181 -176.5t60 -225.5q0 -209 -148 -330.5t-401 -121.5q-221 0 -356 90z" />
<glyph unicode="T" horiz-adv-x="1087" d="M168 1204l55 258h1010l-55 -258h-353l-254 -1204h-305l254 1204h-352z" />
<glyph unicode="U" horiz-adv-x="1415" d="M141 401q0 72 15 138l196 923h305l-194 -919q-17 -74 -17 -125q0 -178 189 -178q123 0 195 76.5t104 228.5l194 917h306l-201 -946q-57 -266 -218 -401t-419 -135q-212 0 -333.5 113.5t-121.5 307.5z" />
<glyph unicode="V" horiz-adv-x="1208" d="M184 1462h295l51 -880q4 -45 4 -133q-2 -103 -6 -150h7q78 221 110 283l432 880h316l-748 -1462h-334z" />
<glyph unicode="W" horiz-adv-x="1831" d="M184 1462h287l6 -798q0 -52 -4 -173t-10 -174h6q22 64 67 180.5t60 145.5l369 819h270l21 -873q0 -146 -9 -272h6q43 129 131 349l330 796h309l-647 -1462h-346l-22 721l-2 139q0 88 4 158h-4q-46 -146 -115 -299l-324 -719h-338z" />
<glyph unicode="X" horiz-adv-x="1241" d="M-117 0l576 764l-238 698h320l153 -518l363 518h344l-545 -725l268 -737h-331l-172 543l-396 -543h-342z" />
<glyph unicode="Y" horiz-adv-x="1155" d="M186 1462h312l129 -592l374 592h342l-618 -903l-119 -559h-303l119 559z" />
<glyph unicode="Z" horiz-adv-x="1098" d="M-61 0l38 201l777 1005h-543l53 256h936l-41 -202l-782 -1004h596l-53 -256h-981z" />
<glyph unicode="[" horiz-adv-x="678" d="M-37 -324l381 1786h473l-45 -211h-215l-291 -1364h215l-45 -211h-473z" />
<glyph unicode="\" horiz-adv-x="862" d="M221 1462h260l224 -1462h-267z" />
<glyph unicode="]" horiz-adv-x="678" d="M-137 -324l45 211h213l291 1364h-215l45 211h473l-381 -1786h-471z" />
<glyph unicode="^" horiz-adv-x="1081" d="M20 520l619 950h147l277 -950h-223l-174 633l-402 -633h-244z" />
<glyph unicode="_" horiz-adv-x="819" d="M-186 -324l30 140h822l-31 -140h-821z" />
<glyph unicode="`" horiz-adv-x="1135" d="M508 1548v21h311q36 -148 115 -303v-25h-184q-71 69 -138.5 153.5t-103.5 153.5z" />
<glyph unicode="a" horiz-adv-x="1217" d="M90 385q0 198 72 377.5t189 278t257 98.5q97 0 167.5 -42t109.5 -122h8l57 143h232l-238 -1118h-229l14 145h-4q-134 -165 -319 -165q-147 0 -231.5 106.5t-84.5 298.5zM395 399q0 -88 33.5 -132t95.5 -44q69 0 133 67t103 181.5t39 259.5q0 71 -38.5 117.5t-101.5 46.5 q-68 0 -129.5 -72t-98 -190t-36.5 -234z" />
<glyph unicode="b" horiz-adv-x="1219" d="M37 0l330 1556h301l-62 -288q-41 -182 -84 -299h8q78 98 142.5 134t140.5 36q146 0 230.5 -108t84.5 -298t-68 -367.5t-187 -281.5t-263 -104q-194 0 -276 163h-8l-58 -143h-231zM420 399q0 -80 37 -128t102 -48q67 0 128 69t98.5 189.5t37.5 237.5q0 176 -131 176 q-68 0 -130 -65t-102 -180.5t-40 -250.5z" />
<glyph unicode="c" horiz-adv-x="989" d="M90 391q0 212 74.5 385.5t209.5 268t308 94.5q182 0 328 -72l-92 -229q-54 23 -106 40t-118 17q-85 0 -153.5 -64t-107 -175.5t-38.5 -239.5q0 -96 45.5 -144.5t126.5 -48.5q76 0 141 23.5t134 58.5v-246q-152 -79 -336 -79q-201 0 -308.5 107.5t-107.5 303.5z" />
<glyph unicode="d" horiz-adv-x="1217" d="M90 387q0 196 71.5 374.5t188.5 278t258 99.5q82 0 141.5 -37t112.5 -127h8l2 28q6 110 25 195l76 358h301l-330 -1556h-229l14 145h-4q-71 -87 -148.5 -126t-170.5 -39q-147 0 -231.5 107t-84.5 300zM395 399q0 -176 137 -176q66 0 128.5 68.5t100.5 182.5t38 245 q0 80 -37.5 128t-102.5 48q-68 0 -129.5 -72t-98 -190t-36.5 -234z" />
<glyph unicode="e" horiz-adv-x="1141" d="M90 412q0 207 82.5 377.5t223.5 260t319 89.5q177 0 276 -81.5t99 -223.5q0 -187 -167 -288.5t-477 -101.5h-51l-2 -21v-20q0 -91 51.5 -143.5t147.5 -52.5q87 0 158 19t172 67v-227q-172 -86 -390 -86q-210 0 -326 113t-116 319zM428 647h45q155 0 241.5 48.5 t86.5 131.5q0 95 -105 95q-88 0 -166 -80t-102 -195z" />
<glyph unicode="f" horiz-adv-x="764" d="M-219 -225q61 -21 115 -21q61 0 107 40t65 130l204 965h-163l30 145l183 84l18 84q41 190 138.5 277.5t273.5 87.5q131 0 235 -49l-80 -224q-69 31 -133 31q-57 0 -92 -40t-47 -105l-12 -62h219l-49 -229h-220l-215 -1010q-77 -371 -403 -371q-104 0 -174 25v242z" />
<glyph unicode="g" horiz-adv-x="1108" d="M-115 -209q0 102 68.5 175.5t214.5 121.5q-74 47 -74 133q0 71 44.5 122.5t146.5 98.5q-65 49 -96 112t-31 153q0 199 125.5 315.5t341.5 116.5q83 0 166 -23h395l-35 -166l-174 -41q16 -52 16 -118q0 -195 -121 -308.5t-329 -113.5q-59 0 -99 10q-84 -27 -84 -78 q0 -34 30 -49t89 -23l137 -18q163 -21 237.5 -84.5t74.5 -183.5q0 -211 -156 -323t-446 -112q-208 0 -324.5 75.5t-116.5 207.5zM150 -172q0 -115 194 -115q151 0 228 45t77 127q0 39 -32.5 60t-137.5 35l-114 14q-106 -14 -160.5 -57t-54.5 -109zM442 680q0 -119 103 -119 q75 0 121.5 76.5t46.5 193.5t-99 117q-77 0 -124.5 -76.5t-47.5 -191.5z" />
<glyph unicode="h" horiz-adv-x="1237" d="M37 0l330 1556h301q-39 -181 -60 -278t-86 -309h8q62 77 138 123.5t176 46.5q138 0 213.5 -83.5t75.5 -238.5q0 -73 -23 -180l-133 -637h-301l137 653q16 68 16 119q0 123 -108 123q-92 0 -167 -114t-118 -318l-98 -463h-301z" />
<glyph unicode="i" horiz-adv-x="608" d="M37 0l237 1118h301l-237 -1118h-301zM322 1380q0 87 47.5 131.5t134.5 44.5q73 0 111 -31t38 -89q0 -80 -44 -129.5t-136 -49.5q-151 0 -151 123z" />
<glyph unicode="j" horiz-adv-x="608" d="M-264 -225q61 -21 114 -21q137 0 173 170l253 1194h302l-265 -1239q-77 -371 -403 -371q-104 0 -174 25v242zM324 1380q0 87 47.5 131.5t134.5 44.5q73 0 111 -31t38 -89q0 -80 -44 -129.5t-136 -49.5q-151 0 -151 123z" />
<glyph unicode="k" horiz-adv-x="1163" d="M37 0l330 1556h301l-148 -694q-8 -41 -29 -117l-28 -102h4l453 475h344l-498 -504l285 -614h-336l-183 420l-120 -72l-74 -348h-301z" />
<glyph unicode="l" horiz-adv-x="608" d="M37 0l330 1556h301l-330 -1556h-301z" />
<glyph unicode="m" horiz-adv-x="1853" d="M37 0l237 1118h230l-21 -207h6q146 228 355 228q219 0 262 -228h6q68 110 160.5 169t197.5 59q136 0 207.5 -85t71.5 -237q0 -76 -23 -180l-133 -637h-301l138 653q16 68 16 119q0 123 -98 123q-92 0 -166.5 -112t-118.5 -318l-96 -465h-301l137 653q16 68 16 119 q0 123 -98 123q-92 0 -167 -114t-118 -318l-98 -463h-301z" />
<glyph unicode="n" horiz-adv-x="1237" d="M37 0l237 1118h230l-21 -207h6q146 228 355 228q138 0 213.5 -83.5t75.5 -238.5q0 -73 -23 -180l-133 -637h-301l137 653q16 68 16 119q0 123 -108 123q-92 0 -167 -114t-118 -318l-98 -463h-301z" />
<glyph unicode="o" horiz-adv-x="1198" d="M90 410q0 213 71.5 379.5t206.5 258t316 91.5q196 0 310 -118t114 -325q0 -211 -70.5 -374t-203.5 -252.5t-316 -89.5q-195 0 -311.5 117.5t-116.5 312.5zM393 410q0 -185 150 -185q75 0 135 61.5t93.5 171t33.5 238.5q0 197 -143 197q-75 0 -134.5 -61t-97 -179 t-37.5 -243z" />
<glyph unicode="p" horiz-adv-x="1219" d="M-68 -492l342 1610h230l-17 -170h9q138 191 317 191q146 0 230.5 -107.5t84.5 -300.5q0 -191 -68.5 -367.5t-187.5 -280t-262 -103.5q-83 0 -143 37t-111 126h-8q-12 -159 -43 -295l-72 -340h-301zM420 399q0 -80 37 -128t102 -48q67 0 128 69t98.5 189.5t37.5 237.5 q0 176 -131 176q-68 0 -131.5 -67.5t-102 -180t-38.5 -248.5z" />
<glyph unicode="q" horiz-adv-x="1217" d="M90 385q0 198 72 377.5t189 278t257 98.5q86 0 152.5 -37.5t124.5 -126.5h8l57 143h232l-342 -1610h-301q47 218 73 337.5t84 304.5h-8q-72 -94 -143 -132t-154 -38q-88 0 -156 47.5t-106.5 138.5t-38.5 219zM395 399q0 -88 36.5 -132t103.5 -44q64 0 127.5 70t100 181 t36.5 245q0 80 -37.5 128t-102.5 48q-68 0 -129.5 -72t-98 -190t-36.5 -234z" />
<glyph unicode="r" horiz-adv-x="862" d="M37 0l237 1118h230l-21 -207h6q147 228 353 228q59 0 96 -11l-66 -290q-45 16 -100 16q-116 0 -203.5 -91.5t-124.5 -262.5l-106 -500h-301z" />
<glyph unicode="s" horiz-adv-x="969" d="M23 45v248q157 -90 319 -90q80 0 131 32.5t51 88.5q0 43 -37 77t-131 86q-121 68 -169 135.5t-48 159.5q0 170 110.5 263.5t315.5 93.5q201 0 363 -95l-99 -215q-140 84 -258 84q-57 0 -92 -25.5t-35 -68.5q0 -39 32 -68.5t120 -74.5q123 -63 178 -137t55 -170 q0 -188 -124.5 -288.5t-346.5 -100.5q-107 0 -186.5 15t-148.5 50z" />
<glyph unicode="t" horiz-adv-x="840" d="M94 889l29 147l196 84l132 236h194l-49 -238h283l-50 -229h-282l-115 -539q-6 -30 -6 -53q0 -74 88 -74q65 0 162 35v-225q-111 -53 -266 -53q-150 0 -220.5 63t-70.5 195q0 50 12 112l115 539h-152z" />
<glyph unicode="u" horiz-adv-x="1237" d="M111 301q0 93 24 213l127 604h301l-137 -653q-16 -68 -16 -119q0 -123 108 -123q92 0 167 114t118 318l98 463h301l-237 -1118h-230l21 207h-6q-145 -227 -355 -227q-138 0 -211 82.5t-73 238.5z" />
<glyph unicode="v" horiz-adv-x="1049" d="M102 1118h295l45 -586q7 -133 7 -231h6q55 153 92 223l297 594h323l-604 -1118h-323z" />
<glyph unicode="w" horiz-adv-x="1614" d="M125 1118h281l4 -495l-4 -167l-7 -171h4q6 20 14 41.5t51 136.5t46 119l231 536h328v-536q0 -142 -10 -297h6l28 80q73 208 95 258l219 495h307l-530 -1118h-330l-6 520q0 155 10 340h-6q-62 -178 -123 -319l-233 -541h-324z" />
<glyph unicode="x" horiz-adv-x="1087" d="M-100 0l479 573l-225 545h321l115 -334l244 334h354l-467 -561l244 -557h-326l-125 342l-264 -342h-350z" />
<glyph unicode="y" horiz-adv-x="1063" d="M-141 -233q68 -13 116 -13q84 0 147.5 48t117.5 149l26 49l-164 1118h295l56 -518q14 -122 14 -293h6q20 51 44 119.5t65 153.5l260 538h327l-680 -1278q-177 -332 -483 -332q-90 0 -147 19v240z" />
<glyph unicode="z" horiz-adv-x="932" d="M-47 0l35 180l575 705h-397l51 233h750l-43 -200l-566 -685h439l-49 -233h-795z" />
<glyph unicode="{" horiz-adv-x="727" d="M-8 459l45 229q122 0 192.5 41.5t92.5 138.5l61 285q38 170 131 239.5t270 69.5h84l-49 -225q-90 -2 -130.5 -34.5t-55.5 -106.5l-66 -297q-45 -207 -276 -236v-8q85 -26 126.5 -82.5t41.5 -134.5q0 -44 -15 -113l-36 -178q-7 -28 -7 -51q0 -54 33.5 -74t91.5 -20v-226 h-53q-167 0 -253.5 63.5t-86.5 184.5q0 57 14 125l39 184q15 69 15 86q0 140 -209 140z" />
<glyph unicode="|" d="M455 -465v2015h219v-2015h-219z" />
<glyph unicode="}" horiz-adv-x="727" d="M-100 -98q93 3 137 35.5t59 105.5l66 297q25 111 95 166t181 69v9q-168 51 -168 217q0 43 15 112l37 179q6 30 6 51q0 54 -36.5 74t-109.5 20l41 225h33q340 0 340 -248q0 -56 -14 -124l-39 -185q-15 -69 -15 -86q0 -139 209 -139l-45 -229q-122 0 -192.5 -42t-91.5 -139 l-62 -284q-37 -170 -130.5 -240t-270.5 -70h-45v226z" />
<glyph unicode="~" d="M109 551v231q101 109 256 109q64 0 117 -14t139 -50q64 -27 111 -41t95 -14q51 0 112 30.5t122 90.5v-231q-103 -109 -256 -109q-59 0 -109 11.5t-147 51.5q-89 38 -127 47t-80 9q-54 0 -116.5 -33t-116.5 -88z" />
<glyph unicode="&#xa2;" d="M164 584q0 193 62.5 355t178 262.5t267.5 123.5l33 158h188l-35 -158q118 -14 225 -65l-92 -230q-53 23 -105 40t-118 17q-133 0 -216 -143t-83 -336q0 -96 45 -144t127 -48q75 0 140 23.5t134 58.5v-246q-136 -71 -299 -80l-41 -192h-188l49 210q-134 36 -203 136 t-69 258z" />
<glyph unicode="&#xa3;" d="M-12 0l49 246q196 48 244 264l22 104h-192l45 220h192l49 247q41 197 162 300.5t313 103.5q195 0 369 -86l-113 -232q-141 68 -237 68q-75 0 -123 -39.5t-68 -132.5l-47 -229h299l-45 -220h-299l-18 -84q-42 -195 -209 -270h655l-55 -260h-993z" />
<glyph unicode="&#xa5;" d="M88 221l37 178h252l29 138h-252l39 178h196l-192 747h297l114 -590l371 590h311l-506 -747h203l-39 -178h-252l-28 -138h252l-37 -178h-252l-47 -221h-291l47 221h-252z" />
<glyph unicode="&#xa9;" horiz-adv-x="1704" d="M125 731q0 200 100 375t275 276t377 101q199 0 373.5 -99t276 -275.5t101.5 -377.5q0 -199 -98.5 -373t-272.5 -276t-380 -102q-207 0 -382 103.5t-272.5 276.5t-97.5 371zM266 731q0 -164 81.5 -305t224 -223t305.5 -82q167 0 308 83t221.5 223.5t80.5 303.5 t-80.5 303.5t-222 223.5t-307.5 83q-164 0 -306.5 -82.5t-223.5 -223.5t-81 -304zM485 721q0 225 117.5 351t325.5 126q142 0 284 -72l-75 -174q-114 58 -205 58q-111 0 -163 -73t-52 -214q0 -134 55.5 -203t159.5 -69q43 0 108.5 15.5t124.5 43.5v-191q-131 -57 -262 -57 q-196 0 -307 122.5t-111 336.5z" />
<glyph unicode="&#xad;" horiz-adv-x="659" d="M41 424l53 250h524l-53 -250h-524z" />
<glyph unicode="&#xae;" horiz-adv-x="1704" d="M125 731q0 200 100 375t275 276t377 101q199 0 373.5 -99t276 -275.5t101.5 -377.5q0 -199 -98.5 -373t-272.5 -276t-380 -102q-207 0 -382 103.5t-272.5 276.5t-97.5 371zM266 731q0 -164 81.5 -305t224 -223t305.5 -82q167 0 308 83t221.5 223.5t80.5 303.5 t-80.5 303.5t-222 223.5t-307.5 83q-164 0 -306.5 -82.5t-223.5 -223.5t-81 -304zM571 293v874h308q173 0 265.5 -67.5t92.5 -200.5q0 -86 -44 -149.5t-130 -96.5l197 -360h-254l-138 297h-67v-297h-230zM801 758h51q72 0 113 31t41 92q0 59 -35.5 88.5t-116.5 29.5h-53 v-241z" />
<glyph unicode="&#xb4;" horiz-adv-x="1135" d="M483 1241v25q79 88 222 303h335v-17q-46 -56 -154 -152.5t-194 -158.5h-209z" />
<glyph unicode="&#x2000;" horiz-adv-x="786" />
<glyph unicode="&#x2001;" horiz-adv-x="1573" />
<glyph unicode="&#x2002;" horiz-adv-x="786" />
<glyph unicode="&#x2003;" horiz-adv-x="1573" />
<glyph unicode="&#x2004;" horiz-adv-x="524" />
<glyph unicode="&#x2005;" horiz-adv-x="393" />
<glyph unicode="&#x2006;" horiz-adv-x="262" />
<glyph unicode="&#x2007;" horiz-adv-x="262" />
<glyph unicode="&#x2008;" horiz-adv-x="196" />
<glyph unicode="&#x2009;" horiz-adv-x="314" />
<glyph unicode="&#x200a;" horiz-adv-x="87" />
<glyph unicode="&#x2010;" horiz-adv-x="659" d="M41 424l53 250h524l-53 -250h-524z" />
<glyph unicode="&#x2011;" horiz-adv-x="659" d="M41 424l53 250h524l-53 -250h-524z" />
<glyph unicode="&#x2012;" horiz-adv-x="659" d="M41 424l53 250h524l-53 -250h-524z" />
<glyph unicode="&#x2013;" horiz-adv-x="983" d="M41 436l49 230h852l-49 -230h-852z" />
<glyph unicode="&#x2014;" horiz-adv-x="1966" d="M41 436l49 230h1835l-49 -230h-1835z" />
<glyph unicode="&#x2018;" horiz-adv-x="440" d="M115 983q103 227 262 479h225q-91 -213 -194 -501h-285z" />
<glyph unicode="&#x2019;" horiz-adv-x="440" d="M106 961q89 206 195 501h285l8 -22q-103 -227 -262 -479h-226z" />
<glyph unicode="&#x201c;" horiz-adv-x="887" d="M115 983q103 227 262 479h225q-91 -213 -194 -501h-285zM561 983q103 227 262 479h226q-97 -227 -195 -501h-285z" />
<glyph unicode="&#x201d;" horiz-adv-x="887" d="M106 961q89 206 195 501h285l8 -22q-103 -227 -262 -479h-226zM553 961q23 53 46.5 111t148.5 390h284l8 -22q-103 -227 -262 -479h-225z" />
<glyph unicode="&#x2022;" horiz-adv-x="739" d="M104 686q0 106 42.5 194t120 136.5t182.5 48.5q120 0 182.5 -67t62.5 -191q0 -177 -91.5 -277t-248.5 -100q-117 0 -183.5 67t-66.5 189z" />
<glyph unicode="&#x2026;" horiz-adv-x="1706" d="M25 115q0 90 53.5 144t150.5 54q68 0 109 -38t41 -107q0 -87 -55 -141t-144 -54q-73 0 -114 37.5t-41 104.5zM586 115q0 90 53.5 144t150.5 54q68 0 109 -38t41 -107q0 -87 -55 -141t-144 -54q-73 0 -114 37.5t-41 104.5zM1147 115q0 90 53.5 144t150.5 54q68 0 109 -38 t41 -107q0 -87 -55 -141t-144 -54q-73 0 -114 37.5t-41 104.5z" />
<glyph unicode="&#x202f;" horiz-adv-x="314" />
<glyph unicode="&#x205f;" horiz-adv-x="393" />
<glyph unicode="&#x20ac;" d="M41 481l37 178h127q9 67 22 115h-125l39 176h135q87 252 250.5 393.5t374.5 141.5q100 0 179 -23t165 -80l-125 -223q-87 49 -131 63.5t-90 14.5q-97 0 -176 -74.5t-135 -212.5h348l-39 -176h-360q-11 -34 -25 -115h299l-37 -178h-280q0 -120 44.5 -181.5t147.5 -61.5 q133 0 283 63v-258q-126 -63 -330 -63q-446 0 -446 501h-152z" />
<glyph unicode="&#x2122;" horiz-adv-x="1534" d="M106 1313v149h564v-149h-199v-572h-168v572h-197zM715 741v721h248l159 -510l170 510h240v-721h-168v408l4 121h-6l-174 -529h-141l-166 529h-7l5 -111v-418h-164z" />
<glyph unicode="&#xe000;" horiz-adv-x="1120" d="M0 1120h1120v-1120h-1120v1120z" />
</font>
</defs></svg> 