<?xml version="1.0" standalone="no"?>
<!DOCTYPE svg PUBLIC "-//W3C//DTD SVG 1.1//EN" "http://www.w3.org/Graphics/SVG/1.1/DTD/svg11.dtd" >
<svg xmlns="http://www.w3.org/2000/svg">
<metadata>
This is a custom SVG webfont generated by Font Squirrel.
Copyright   : Digitized data copyright  20102011 Google Corporation
Foundry     : Ascender Corporation
Foundry URL : httpwwwascendercorpcom
</metadata>
<defs>
<font id="OpenSansSemiboldItalic" horiz-adv-x="1128" >
<font-face units-per-em="2048" ascent="1638" descent="-410" />
<missing-glyph horiz-adv-x="532" />
<glyph unicode=" "  horiz-adv-x="532" />
<glyph unicode="&#x09;" horiz-adv-x="532" />
<glyph unicode="&#xa0;" horiz-adv-x="532" />
<glyph unicode="!" horiz-adv-x="557" d="M33 96q0 80 45.5 130t130.5 50q57 0 91 -32.5t34 -93.5q0 -79 -47 -128t-123 -49q-62 0 -96.5 33.5t-34.5 89.5zM160 444l168 1018h272l-264 -1018h-176z" />
<glyph unicode="&#x22;" horiz-adv-x="858" d="M213 934l72 528h231l-151 -528h-152zM588 934l74 528h231l-152 -528h-153z" />
<glyph unicode="#" horiz-adv-x="1323" d="M51 418l17 168h280l84 286h-264l16 168h295l121 422h178l-121 -422h252l121 422h174l-121 -422h252l-14 -168h-285l-84 -286h271l-15 -168h-303l-121 -418h-180l123 418h-248l-121 -418h-174l117 418h-250zM526 586h250l82 286h-250z" />
<glyph unicode="$" d="M61 172v209q78 -42 179.5 -70t193.5 -30l84 387q-156 56 -223.5 138.5t-67.5 199.5q0 167 118.5 267.5t324.5 117.5l37 163h135l-35 -165q161 -16 289 -82l-86 -185q-134 66 -244 74l-80 -371q128 -51 186.5 -95t86.5 -101t28 -135q0 -172 -119.5 -277t-337.5 -125 l-45 -211h-135l45 211q-197 13 -334 80zM451 1016q0 -98 110 -139l68 319q-89 -11 -133.5 -57.5t-44.5 -122.5zM571 285q86 11 136.5 60t50.5 126q0 101 -115 145z" />
<glyph unicode="%" horiz-adv-x="1688" d="M141 872q0 166 53 313.5t142.5 222.5t208.5 75q127 0 193.5 -76t66.5 -221q0 -160 -55.5 -313.5t-146.5 -230.5t-206 -77q-124 0 -190 79t-66 228zM231 0l1086 1462h194l-1085 -1462h-195zM334 866q0 -135 80 -135q52 0 95.5 58t73 175.5t29.5 219.5q0 131 -82 131 q-55 0 -99 -61t-70.5 -173t-26.5 -215zM940 279q0 171 53 320t142.5 223.5t207.5 74.5q127 0 195 -75t68 -218q0 -161 -55.5 -315.5t-146.5 -231.5t-204 -77q-127 0 -193.5 76.5t-66.5 222.5zM1133 281q0 -134 81 -134q52 0 96 58.5t73.5 174.5t29.5 220q0 131 -84 131 q-52 0 -95.5 -57.5t-72 -171t-28.5 -221.5z" />
<glyph unicode="&#x26;" horiz-adv-x="1411" d="M66 350q0 147 85.5 254t286.5 205q-88 151 -88 283q0 180 112.5 286.5t297.5 106.5q160 0 252 -81t92 -218q0 -129 -89.5 -230t-293.5 -192l235 -326q109 112 181 295h233q-113 -270 -297 -454l205 -279h-277l-94 131q-106 -80 -211 -115.5t-229 -35.5 q-190 0 -295.5 97.5t-105.5 272.5zM305 371q0 -86 56 -140.5t147 -54.5q77 0 147 27t144 82l-264 381q-133 -74 -181.5 -141.5t-48.5 -153.5zM567 1102q0 -109 62 -201q147 75 199.5 133.5t52.5 126.5q0 66 -36 101.5t-97 35.5q-87 0 -134 -54t-47 -142z" />
<glyph unicode="'" horiz-adv-x="483" d="M213 934l72 528h231l-151 -528h-152z" />
<glyph unicode="(" horiz-adv-x="639" d="M78 276q0 343 124.5 632.5t379.5 553.5h209q-498 -548 -498 -1190q0 -329 115 -596h-183q-147 261 -147 600z" />
<glyph unicode=")" horiz-adv-x="639" d="M-154 -324q498 548 498 1190q0 327 -115 596h183q147 -265 147 -602q0 -342 -123 -629.5t-381 -554.5h-209z" />
<glyph unicode="*" horiz-adv-x="1122" d="M193 1167l71 195l354 -178l37 383l213 -43l-116 -367l403 23l-12 -205l-367 45l170 -361l-205 -61l-102 371l-227 -312l-162 144l293 266z" />
<glyph unicode="+" d="M117 631v180h379v381h180v-381h377v-180h-377v-375h-180v375h-379z" />
<glyph unicode="," horiz-adv-x="530" d="M-102 -264q105 238 200 502h236l8 -23q-125 -260 -266 -479h-178z" />
<glyph unicode="-" horiz-adv-x="649" d="M47 446l45 203h502l-45 -203h-502z" />
<glyph unicode="." horiz-adv-x="551" d="M33 94q0 83 47 132.5t131 49.5q56 0 89.5 -31.5t33.5 -92.5q0 -78 -47.5 -129.5t-124.5 -51.5q-66 0 -97.5 35.5t-31.5 87.5z" />
<glyph unicode="/" horiz-adv-x="788" d="M-92 0l811 1462h233l-811 -1462h-233z" />
<glyph unicode="0" d="M92 471q0 284 83 526t222.5 365t321.5 123q187 0 284 -118.5t97 -354.5q0 -306 -79 -546.5t-219 -363t-325 -122.5q-194 0 -289.5 127.5t-95.5 363.5zM330 469q0 -143 39 -218t129 -75q100 0 182.5 113.5t132 316.5t49.5 414q0 268 -162 268q-97 0 -180 -112 t-136.5 -312.5t-53.5 -394.5z" />
<glyph unicode="1" d="M242 1145l508 317h198l-311 -1462h-238l189 870q28 150 82 324q-57 -55 -135 -102l-187 -117z" />
<glyph unicode="2" d="M-18 0l36 180l471 422q176 159 238.5 231t90.5 133.5t28 131.5q0 85 -49.5 134.5t-139.5 49.5q-70 0 -139 -30t-170 -109l-115 160q120 97 231 138.5t228 41.5q181 0 288 -93t107 -251q0 -108 -39 -201t-123 -190.5t-284 -268.5l-311 -264v-8h622l-41 -207h-929z" />
<glyph unicode="3" d="M31 59v215q84 -49 185.5 -75.5t195.5 -26.5q157 0 245 71.5t88 196.5q0 219 -278 219h-133l37 183h106q164 0 267.5 74.5t103.5 199.5q0 79 -49.5 124.5t-139.5 45.5q-72 0 -146.5 -25.5t-162.5 -84.5l-104 161q120 81 225.5 113.5t226.5 32.5q183 0 286 -88.5 t103 -241.5q0 -158 -99 -264t-269 -137v-7q127 -24 196.5 -106t69.5 -205q0 -133 -68 -236.5t-196.5 -160.5t-304.5 -57q-225 0 -385 79z" />
<glyph unicode="4" d="M-4 317l37 197l803 952h254l-201 -952h201l-43 -197h-201l-68 -317h-229l69 317h-622zM262 514h397l68 309q31 136 100 377h-8q-51 -86 -135 -186z" />
<glyph unicode="5" d="M53 59v217q167 -100 342 -100q173 0 270 83t97 230q0 105 -62 168.5t-188 63.5q-95 0 -225 -35l-88 68l200 708h713l-45 -209h-506l-106 -364q93 18 155 18q181 0 288.5 -103.5t107.5 -285.5q0 -161 -70 -283t-204 -188.5t-324 -66.5q-214 0 -355 79z" />
<glyph unicode="6" d="M111 446q0 205 60.5 406t165 343t251 215t342.5 73q117 0 203 -25l-43 -194q-72 22 -181 22q-205 0 -337 -129.5t-197 -392.5h6q125 170 326 170q156 0 243.5 -99t87.5 -272q0 -162 -68.5 -301t-185.5 -210.5t-270 -71.5q-194 0 -298.5 120t-104.5 346zM340 418 q0 -110 49.5 -177t140.5 -67q81 0 143 48.5t96 134.5t34 188q0 200 -178 200q-51 0 -95.5 -19t-79 -48t-58.5 -64.5t-39 -82t-13 -113.5z" />
<glyph unicode="7" d="M125 0l754 1257h-674l43 205h932l-33 -168l-758 -1294h-264z" />
<glyph unicode="8" d="M76 348q0 297 368 432q-91 70 -130.5 145t-39.5 162q0 179 127 288.5t330 109.5q179 0 283 -89t104 -239q0 -132 -79 -229.5t-248 -163.5q120 -78 172.5 -165.5t52.5 -201.5q0 -121 -61.5 -216.5t-175.5 -148t-271 -52.5q-203 0 -317.5 100t-114.5 268zM311 369 q0 -93 59 -149t158 -56q115 0 184.5 64t69.5 167q0 91 -48.5 157.5t-139.5 119.5q-149 -54 -216 -126.5t-67 -176.5zM504 1096q0 -83 39 -137t104 -93q115 43 177.5 105t62.5 157q0 81 -48 126.5t-128 45.5q-93 0 -150 -56t-57 -148z" />
<glyph unicode="9" d="M92 12v207q121 -43 236 -43q188 0 306 123t177 389h-6q-113 -160 -305 -160q-165 0 -255.5 102t-90.5 288q0 156 67 289t186.5 204.5t274.5 71.5q192 0 294.5 -119.5t102.5 -345.5q0 -205 -58 -414.5t-152.5 -349t-226 -207t-310.5 -67.5q-133 0 -240 32zM387 932 q0 -105 46 -160t134 -55q117 0 198 94t81 240q0 108 -48 172.5t-134 64.5q-82 0 -145.5 -47t-97.5 -130t-34 -179z" />
<glyph unicode=":" horiz-adv-x="551" d="M33 94q0 83 47 132.5t131 49.5q56 0 89.5 -31.5t33.5 -92.5q0 -78 -47.5 -129.5t-124.5 -51.5q-66 0 -97.5 35.5t-31.5 87.5zM205 948q0 83 47 132.5t131 49.5q56 0 89.5 -31.5t33.5 -92.5q0 -79 -48.5 -130t-125.5 -51q-66 0 -96.5 35.5t-30.5 87.5z" />
<glyph unicode=";" horiz-adv-x="551" d="M-100 -264q95 214 198 502h236l8 -23q-125 -260 -266 -479h-176zM205 948q0 83 47 132.5t131 49.5q56 0 89.5 -31.5t33.5 -92.5q0 -79 -48.5 -130t-125.5 -51q-66 0 -96.5 35.5t-30.5 87.5z" />
<glyph unicode="&#x3c;" d="M115 651v121l936 488v-195l-697 -344l697 -303v-197z" />
<glyph unicode="=" d="M117 430v180h936v-180h-936zM117 831v179h936v-179h-936z" />
<glyph unicode="&#x3e;" d="M115 221v197l694 303l-694 344v195l936 -488v-121z" />
<glyph unicode="?" horiz-adv-x="907" d="M162 94q0 83 47 132.5t131 49.5q56 0 89.5 -31.5t33.5 -92.5q0 -79 -49 -129t-125 -50q-66 0 -96.5 34.5t-30.5 86.5zM186 1370q207 113 410 113q171 0 269 -85.5t98 -242.5q0 -120 -63.5 -217.5t-231.5 -216.5q-104 -74 -150 -133t-61 -144h-197q18 133 71.5 220.5 t176.5 177.5q107 77 146.5 117t58 80.5t18.5 88.5q0 70 -42.5 114t-123.5 44q-77 0 -150 -27.5t-151 -64.5z" />
<glyph unicode="@" horiz-adv-x="1743" d="M100 502q0 270 122.5 489t343 344t493.5 125q200 0 346 -74.5t223.5 -214.5t77.5 -325q0 -176 -59.5 -322.5t-166.5 -229.5t-239 -83q-98 0 -150.5 46t-64.5 120h-6q-101 -166 -277 -166q-123 0 -189.5 78.5t-66.5 218.5q0 151 67.5 279.5t188 203t263.5 74.5 q52 0 94.5 -5t79.5 -13t129 -39l-101 -392q-30 -114 -30 -159q0 -92 79 -92q72 0 134 66.5t97.5 174.5t35.5 230q0 228 -128.5 347.5t-363.5 119.5q-214 0 -385 -99.5t-266.5 -281.5t-95.5 -406q0 -259 140.5 -401t391.5 -142q200 0 430 86v-155q-219 -90 -454 -90 q-210 0 -367 83.5t-241.5 239.5t-84.5 365zM676 522q0 -157 112 -157q82 0 141.5 72t100.5 220l64 240q-53 16 -105 16q-86 0 -158.5 -53.5t-113.5 -144t-41 -193.5z" />
<glyph unicode="A" horiz-adv-x="1210" d="M-121 0l783 1464h274l166 -1464h-234l-41 406h-485l-209 -406h-254zM446 614h365q-40 416 -45.5 503.5t-5.5 139.5q-55 -139 -142 -307z" />
<glyph unicode="B" horiz-adv-x="1247" d="M70 0l309 1462h399q222 0 335.5 -84t113.5 -248q0 -146 -86.5 -243t-239.5 -127v-8q108 -28 167.5 -103.5t59.5 -183.5q0 -217 -150 -341t-417 -124h-491zM348 201h223q147 0 230.5 68t83.5 194q0 98 -60 149.5t-176 51.5h-200zM489 858h199q139 0 215 60.5t76 171.5 q0 172 -223 172h-181z" />
<glyph unicode="C" horiz-adv-x="1225" d="M135 545q0 260 105.5 483t281.5 339t402 116q217 0 389 -92l-94 -195q-63 34 -134 58t-161 24q-154 0 -275 -89t-193.5 -259.5t-72.5 -374.5q0 -180 82.5 -275.5t243.5 -95.5q141 0 329 68v-205q-180 -67 -374 -67q-248 0 -388.5 148.5t-140.5 416.5z" />
<glyph unicode="D" horiz-adv-x="1374" d="M70 0l309 1462h369q271 0 417 -145t146 -424q0 -271 -100 -473t-291 -311t-449 -109h-401zM348 201h135q177 0 309 86t202.5 242t70.5 356q0 184 -88 280.5t-256 96.5h-146z" />
<glyph unicode="E" horiz-adv-x="1077" d="M70 0l309 1462h776l-43 -205h-539l-84 -395h502l-41 -203h-504l-96 -456h539l-43 -203h-776z" />
<glyph unicode="F" horiz-adv-x="1026" d="M70 0l309 1462h774l-43 -205h-537l-96 -454h502l-45 -203h-500l-127 -600h-237z" />
<glyph unicode="G" horiz-adv-x="1399" d="M135 539q0 264 102.5 483t290 340t426.5 121q111 0 213 -20.5t205 -69.5l-90 -203q-174 86 -334 86q-158 0 -287 -90.5t-203.5 -258t-74.5 -372.5q0 -183 89 -277t253 -94q109 0 215 33l80 371h-277l43 205h512l-157 -736q-112 -40 -218.5 -58.5t-238.5 -18.5 q-261 0 -405 146t-144 413z" />
<glyph unicode="H" horiz-adv-x="1411" d="M70 0l309 1462h237l-127 -598h566l127 598h237l-309 -1462h-238l140 659h-566l-139 -659h-237z" />
<glyph unicode="I" horiz-adv-x="608" d="M70 0l311 1462h235l-311 -1462h-235z" />
<glyph unicode="J" horiz-adv-x="612" d="M-322 -383l5 201q84 -21 153 -21q201 0 254 250l299 1415h238l-305 -1446q-46 -217 -161.5 -320.5t-312.5 -103.5q-104 0 -170 25z" />
<glyph unicode="K" horiz-adv-x="1198" d="M70 0l309 1462h237l-151 -706l141 166l492 540h284l-616 -669l321 -793h-262l-252 655l-149 -100l-117 -555h-237z" />
<glyph unicode="L" horiz-adv-x="1016" d="M70 0l309 1462h237l-266 -1257h539l-43 -205h-776z" />
<glyph unicode="M" horiz-adv-x="1757" d="M68 0l309 1462h323l109 -1149h6l606 1149h344l-305 -1462h-227l182 872q39 186 86 342h-6l-643 -1214h-205l-115 1214h-6q-9 -118 -55 -340l-184 -874h-219z" />
<glyph unicode="N" horiz-adv-x="1491" d="M68 0l309 1462h268l399 -1149h7q6 54 31 192.5t40 203.5l160 753h219l-309 -1462h-260l-410 1163h-6l-10 -69q-24 -149 -35.5 -212.5t-183.5 -881.5h-219z" />
<glyph unicode="O" horiz-adv-x="1485" d="M135 543q0 267 98.5 487.5t269.5 337.5t388 117q251 0 390.5 -149t139.5 -414q0 -279 -95 -497t-261.5 -331.5t-386.5 -113.5q-259 0 -401 149.5t-142 413.5zM383 545q0 -173 81.5 -267t227.5 -94q138 0 248.5 95.5t172 265t61.5 375.5q0 170 -79 265t-223 95 q-138 0 -250 -96t-175.5 -266.5t-63.5 -372.5z" />
<glyph unicode="P" horiz-adv-x="1174" d="M70 0l309 1462h334q229 0 345 -100.5t116 -300.5q0 -248 -169.5 -381t-472.5 -133h-110l-115 -547h-237zM465 748h94q178 0 275.5 79.5t97.5 225.5q0 109 -58.5 159t-179.5 50h-119z" />
<glyph unicode="Q" horiz-adv-x="1485" d="M135 543q0 267 98.5 487.5t269.5 337.5t388 117q251 0 390.5 -149t139.5 -414q0 -322 -130 -563t-355 -332l264 -375h-289l-202 328h-31q-259 0 -401 149.5t-142 413.5zM383 545q0 -173 81.5 -267t227.5 -94q138 0 248.5 94t172 263.5t61.5 378.5q0 170 -79 265t-223 95 q-138 0 -250 -96t-175.5 -266.5t-63.5 -372.5z" />
<glyph unicode="R" horiz-adv-x="1206" d="M70 0l309 1462h338q223 0 342 -94.5t119 -290.5q0 -165 -86.5 -278.5t-257.5 -165.5l249 -633h-260l-207 584h-186l-123 -584h-237zM473 782h123q170 0 254 75t84 206q0 105 -59 151t-183 46h-119z" />
<glyph unicode="S" horiz-adv-x="1057" d="M39 55v224q173 -97 350 -97q137 0 216 58.5t79 162.5q0 69 -41 122.5t-172 136.5q-105 67 -155 122t-76.5 120.5t-26.5 144.5q0 128 61.5 227t174 153t253.5 54q205 0 381 -92l-86 -191q-161 78 -295 78q-109 0 -175 -58.5t-66 -152.5q0 -47 15 -82.5t46.5 -66 t134.5 -95.5q155 -97 214 -187.5t59 -207.5q0 -210 -144.5 -329t-398.5 -119q-210 0 -348 75z" />
<glyph unicode="T" horiz-adv-x="1053" d="M176 1257l45 205h998l-43 -205h-381l-267 -1257h-237l264 1257h-379z" />
<glyph unicode="U" horiz-adv-x="1399" d="M152 391q0 83 20 170l193 901h237l-192 -905q-21 -88 -21 -158q0 -102 59.5 -158.5t180.5 -56.5q145 0 230 80.5t124 261.5l199 936h237l-202 -956q-56 -267 -208 -396.5t-403 -129.5q-217 0 -335.5 106t-118.5 305z" />
<glyph unicode="V" horiz-adv-x="1165" d="M186 1462h232l74 -905q9 -103 11 -233l-1 -76h4q70 178 137 309l455 905h254l-764 -1462h-258z" />
<glyph unicode="W" horiz-adv-x="1788" d="M203 1462h229l19 -850q0 -136 -13 -346h6q83 221 142 355l387 841h225l31 -839l3 -169l-3 -188h8q28 88 70 197.5t61 152.5l358 846h246l-655 -1462h-258l-37 842l-6 185l4 106h-6q-47 -144 -117 -291l-385 -842h-256z" />
<glyph unicode="X" horiz-adv-x="1151" d="M-111 0l586 770l-250 692h246l178 -540l402 540h266l-551 -710l274 -752h-256l-192 592l-438 -592h-265z" />
<glyph unicode="Y" horiz-adv-x="1092" d="M186 1462h242l154 -669l432 669h266l-623 -913l-114 -549h-238l119 553z" />
<glyph unicode="Z" horiz-adv-x="1092" d="M-39 0l33 168l850 1087h-598l43 207h897l-35 -172l-852 -1085h645l-43 -205h-940z" />
<glyph unicode="[" horiz-adv-x="631" d="M-27 -324l381 1786h430l-39 -176h-221l-303 -1433h221l-39 -177h-430z" />
<glyph unicode="\" horiz-adv-x="788" d="M221 1462h207l219 -1462h-209z" />
<glyph unicode="]" horiz-adv-x="631" d="M-143 -324l37 177h219l305 1433h-221l39 176h430l-381 -1786h-428z" />
<glyph unicode="^" horiz-adv-x="1069" d="M37 537l608 933h127l272 -933h-184l-188 690l-434 -690h-201z" />
<glyph unicode="_" horiz-adv-x="813" d="M-188 -324l30 140h817l-30 -140h-817z" />
<glyph unicode="`" horiz-adv-x="1135" d="M541 1548v21h245q47 -154 132 -303v-25h-144q-65 63 -132 151.5t-101 155.5z" />
<glyph unicode="a" horiz-adv-x="1186" d="M94 367q0 202 69.5 378t191.5 278.5t268 102.5q97 0 167 -45.5t109 -132.5h10l62 158h180l-236 -1106h-182l21 176h-6q-158 -196 -349 -196q-141 0 -223 101.5t-82 285.5zM332 373q0 -102 40.5 -152.5t112.5 -50.5q82 0 161 77.5t130 207.5t51 284q0 88 -47 141.5 t-123 53.5q-85 0 -160 -77t-120 -209.5t-45 -274.5z" />
<glyph unicode="b" horiz-adv-x="1200" d="M47 0l330 1556h235l-71 -333q-13 -63 -38 -156.5t-40 -140.5h8q90 113 165 156.5t161 43.5q145 0 226 -103.5t81 -285.5q0 -202 -69.5 -379.5t-190.5 -277.5t-266 -100q-98 0 -168.5 45t-110.5 131h-10l-64 -156h-178zM369 373q0 -96 46.5 -149.5t131.5 -53.5t159 78.5 t117 210t43 274.5q0 201 -155 201q-81 0 -162 -80t-130.5 -210.5t-49.5 -270.5z" />
<glyph unicode="c" horiz-adv-x="954" d="M94 389q0 207 73.5 376.5t206.5 265t302 95.5q164 0 297 -61l-70 -184q-122 53 -221 53q-150 0 -250 -153.5t-100 -379.5q0 -111 56 -171t155 -60q74 0 138.5 22t129.5 54v-195q-140 -71 -305 -71q-196 0 -304 106t-108 303z" />
<glyph unicode="d" horiz-adv-x="1198" d="M94 369q0 205 71.5 383t191.5 276t266 98q179 0 268 -178h8q13 146 37 250l76 358h233l-330 -1556h-184l19 176h-7q-88 -106 -170 -151t-174 -45q-143 0 -224 101.5t-81 287.5zM332 373q0 -203 157 -203q82 0 162.5 82t129 214t48.5 267q0 91 -43.5 146t-132.5 55 q-85 0 -159 -77t-118 -211t-44 -273z" />
<glyph unicode="e" horiz-adv-x="1075" d="M94 401q0 198 77.5 368.5t210 263.5t296.5 93q161 0 250.5 -72.5t89.5 -205.5q0 -182 -166.5 -284.5t-474.5 -102.5h-43l-2 -31v-29q0 -111 56.5 -174t168.5 -63q72 0 143 19t168 65v-187q-96 -44 -176.5 -62.5t-179.5 -18.5q-197 0 -307.5 111t-110.5 310zM362 633h29 q188 0 294 53.5t106 151.5q0 51 -32 79.5t-95 28.5q-96 0 -180.5 -86t-121.5 -227z" />
<glyph unicode="f" horiz-adv-x="702" d="M-225 -279q64 -20 114 -20q134 0 177 205l217 1022h-179l21 106l194 76l21 92q44 198 134.5 281.5t256.5 83.5q115 0 211 -43l-61 -176q-74 28 -136 28q-69 0 -110.5 -43t-63.5 -141l-18 -86h229l-37 -178h-229l-223 -1053q-40 -189 -131 -278t-238 -89q-90 0 -149 23 v190z" />
<glyph unicode="g" horiz-adv-x="1067" d="M-121 -211q0 103 69.5 178t223.5 127q-76 45 -76 127q0 69 46.5 119.5t146.5 97.5q-135 81 -135 252q0 196 122.5 316t323.5 120q80 0 160 -20h383l-31 -137l-192 -33q28 -58 28 -137q0 -193 -119 -306.5t-319 -113.5q-52 0 -92 8q-111 -40 -111 -104q0 -38 31.5 -52 t91.5 -22l127 -16q176 -22 252 -87.5t76 -187.5q0 -196 -151 -303t-429 -107q-203 0 -314.5 75t-111.5 206zM92 -184q0 -65 55.5 -103.5t169.5 -38.5q163 0 255 54t92 155q0 51 -45 80t-158 41l-137 14q-112 -18 -172 -71t-60 -131zM377 680q0 -71 35.5 -109.5t101.5 -38.5 q65 0 112.5 39t74 107t26.5 149q0 142 -133 142q-65 0 -114 -38.5t-76 -105t-27 -145.5z" />
<glyph unicode="h" horiz-adv-x="1208" d="M47 0l330 1556h235l-57 -262q-27 -126 -73 -293l-19 -75h8q84 106 168.5 153t177.5 47q136 0 208.5 -77.5t72.5 -221.5q0 -76 -23 -174l-139 -653h-234l142 672q18 90 18 127q0 135 -129 135q-112 0 -209.5 -125t-142.5 -342l-98 -467h-236z" />
<glyph unicode="i" horiz-adv-x="563" d="M47 0l236 1106h235l-235 -1106h-236zM330 1378q0 68 39 110t110 42q53 0 86 -26.5t33 -80.5q0 -71 -40 -112t-105 -41q-53 0 -88 26t-35 82z" />
<glyph unicode="j" horiz-adv-x="563" d="M-262 -279q64 -20 117 -20q131 0 170 186l260 1219h233l-266 -1247q-38 -181 -127.5 -266t-237.5 -85q-90 0 -149 23v190zM332 1378q0 68 38 110t109 42q54 0 86.5 -26.5t32.5 -80.5q0 -71 -40 -112t-105 -41q-53 0 -87 25.5t-34 82.5z" />
<glyph unicode="k" horiz-adv-x="1081" d="M47 0l330 1556h235q-135 -627 -159.5 -729.5t-59.5 -226.5h4l490 506h272l-483 -485l291 -621h-262l-209 471l-136 -96l-77 -375h-236z" />
<glyph unicode="l" horiz-adv-x="563" d="M47 0l330 1556h235l-331 -1556h-234z" />
<glyph unicode="m" horiz-adv-x="1819" d="M47 0l236 1106h184l-21 -205h9q148 225 352 225q220 0 254 -235h8q75 116 170.5 175.5t198.5 59.5q133 0 202.5 -76.5t69.5 -215.5q0 -64 -22 -181l-140 -653h-235l143 672q19 95 19 133q0 129 -121 129q-108 0 -201.5 -124t-136.5 -329l-101 -481h-235l143 672 q17 82 17 127q0 135 -117 135q-110 0 -203.5 -127t-138.5 -338l-98 -469h-236z" />
<glyph unicode="n" horiz-adv-x="1208" d="M47 0l236 1106h184l-21 -205h9q83 118 171 171.5t191 53.5q134 0 207.5 -76t73.5 -216q0 -69 -23 -181l-137 -653h-236l142 672q18 90 18 131q0 131 -129 131q-72 0 -142 -57t-126 -164.5t-84 -243.5l-98 -469h-236z" />
<glyph unicode="o" horiz-adv-x="1174" d="M94 408q0 199 71.5 365t200.5 258.5t298 92.5q195 0 305 -116t110 -316q0 -202 -73 -367.5t-200.5 -254t-293.5 -88.5q-192 0 -305 114.5t-113 311.5zM332 403q0 -111 49.5 -170t146.5 -59q90 0 162 68t112 190.5t40 269.5q0 107 -49 167.5t-140 60.5q-93 0 -166.5 -71.5 t-114 -194t-40.5 -261.5z" />
<glyph unicode="p" horiz-adv-x="1200" d="M-55 -492l338 1598h184l-21 -188h9q157 208 344 208q143 0 224 -103t81 -286q0 -204 -70 -381.5t-190.5 -276.5t-265.5 -99q-181 0 -269 176h-10q-7 -97 -25 -185l-96 -463h-233zM369 373q0 -96 46.5 -149.5t131.5 -53.5t159 78.5t117 210t43 274.5q0 201 -155 201 q-81 0 -161 -79.5t-130.5 -210.5t-50.5 -271z" />
<glyph unicode="q" horiz-adv-x="1198" d="M94 367q0 208 73 387t192.5 275.5t265.5 96.5q183 0 274 -178h10l64 158h178l-340 -1598h-233l75 349q12 56 43.5 180t38.5 141h-8q-84 -108 -164 -153t-170 -45q-139 0 -219 102.5t-80 284.5zM332 373q0 -203 160 -203q80 0 159 81t127.5 213t48.5 269q0 94 -45.5 147.5 t-126.5 53.5q-86 0 -160 -77.5t-118.5 -209.5t-44.5 -274z" />
<glyph unicode="r" horiz-adv-x="836" d="M47 0l236 1106h184l-21 -205h9q83 120 166 172.5t176 52.5q62 0 108 -12l-51 -219q-54 14 -102 14q-126 0 -225 -113t-138 -296l-106 -500h-236z" />
<glyph unicode="s" horiz-adv-x="922" d="M14 47v203q153 -90 312 -90q97 0 157 40t60 109q0 51 -34.5 87.5t-141.5 97.5q-125 67 -176.5 136.5t-51.5 164.5q0 155 107 243t289 88q196 0 346 -84l-76 -176q-140 76 -266 76q-73 0 -118.5 -33t-45.5 -92q0 -45 33 -80t135 -90q105 -59 149 -101t67 -91.5t23 -114.5 q0 -173 -118 -266.5t-328 -93.5q-190 0 -322 67z" />
<glyph unicode="t" horiz-adv-x="752" d="M92 928l21 110l190 82l129 232h146l-52 -246h279l-39 -178h-277l-122 -572q-13 -55 -13 -92q0 -43 25 -68.5t76 -25.5q68 0 151 31v-178q-35 -17 -95 -30t-120 -13q-274 0 -274 247q0 57 16 131l121 570h-162z" />
<glyph unicode="u" horiz-adv-x="1208" d="M111 274q0 63 12 124.5t24 123.5l123 584h236l-129 -610q-31 -141 -31 -193q0 -133 127 -133q72 0 143 57t126 162.5t85 247.5l99 469h233l-233 -1106h-185l21 205h-8q-82 -116 -171 -170.5t-192 -54.5q-134 0 -207 76t-73 218z" />
<glyph unicode="v" horiz-adv-x="997" d="M100 1106h232l55 -598q14 -159 14 -297h7q28 74 70 165t65 132l311 598h250l-598 -1106h-275z" />
<glyph unicode="w" horiz-adv-x="1540" d="M121 1106h221l13 -646q-2 -87 -11 -245h6q66 176 109 272l278 619h254l19 -604l1 -53l-3 -234h6q17 50 57 158.5t63.5 163.5t251.5 569h244l-518 -1106h-268l-19 627l-1 70l3 200q-25 -62 -51.5 -125t-345.5 -772h-262z" />
<glyph unicode="x" horiz-adv-x="1032" d="M-86 0l475 569l-231 537h245l144 -373l287 373h274l-461 -549l248 -557h-246l-160 387l-305 -387h-270z" />
<glyph unicode="y" horiz-adv-x="1004" d="M-170 -285q75 -16 125 -16q74 0 134 43.5t124 155.5l51 92l-164 1116h232l63 -531q9 -62 16 -174.5t7 -181.5h6q86 215 135 313l293 574h254l-688 -1280q-90 -165 -196 -241.5t-249 -76.5q-76 0 -143 19v188z" />
<glyph unicode="z" horiz-adv-x="920" d="M-39 0l29 147l635 781h-439l39 178h705l-37 -170l-623 -758h486l-37 -178h-758z" />
<glyph unicode="{" horiz-adv-x="721" d="M8 485l39 187q120 0 191.5 42.5t93.5 143.5l59 275q28 134 73 201.5t120 97.5t198 30h60l-41 -184q-96 0 -139.5 -34t-61.5 -116l-70 -309q-24 -108 -87 -170.5t-179 -79.5v-6q160 -45 160 -215q0 -38 -16 -121l-43 -194q-11 -48 -11 -74q0 -51 32.5 -74.5t109.5 -23.5 v-185h-39q-316 0 -316 236q0 61 17 133l45 201q14 65 14 98q0 141 -209 141z" />
<glyph unicode="|" d="M498 -481v2033h178v-2033h-178z" />
<glyph unicode="}" horiz-adv-x="721" d="M-88 -141q106 2 152.5 36.5t64.5 114.5l70 309q24 109 87 170t179 78v6q-158 48 -158 215q0 55 17 121l43 197q10 44 10 74q0 58 -43 78t-121 20l35 184h22q318 0 318 -235q0 -61 -17 -133l-45 -203q-14 -65 -14 -98q0 -142 209 -142l-39 -186q-121 0 -192 -42t-93 -142 l-63 -306q-34 -165 -123.5 -232t-269.5 -67h-29v183z" />
<glyph unicode="~" d="M111 571v191q100 108 249 108q64 0 118.5 -12t146.5 -51q70 -30 115 -42.5t94 -12.5q50 0 112.5 31t120.5 89v-190q-103 -111 -250 -111q-63 0 -124 16.5t-138 49.5q-76 32 -119.5 43.5t-91.5 11.5q-51 0 -112 -31t-121 -90z" />
<glyph unicode="&#xa2;" d="M195 586q0 190 63.5 351t178 260.5t261.5 121.5l35 164h156l-37 -164q124 -12 221 -57l-69 -185q-125 53 -222 53q-99 0 -180 -71.5t-125.5 -194.5t-44.5 -266q0 -111 56 -171t155 -60q74 0 138.5 21.5t129.5 53.5v-194q-133 -69 -293 -74l-40 -194h-156l45 213 q-132 34 -202 134.5t-70 258.5z" />
<glyph unicode="&#xa3;" d="M-18 0l38 193q200 45 250 276l35 164h-196l36 172h197l61 299q38 185 153 282t300 97q188 0 352 -86l-88 -183q-143 74 -258 74q-185 0 -227 -205l-57 -278h333l-34 -172h-336l-33 -152q-21 -98 -68.5 -165t-130.5 -109h690l-45 -207h-972z" />
<glyph unicode="&#xa5;" d="M106 244l33 155h273l30 148h-272l35 155h211l-199 760h232l145 -669l432 669h248l-518 -760h217l-35 -155h-274l-31 -148h274l-33 -155h-272l-53 -244h-221l51 244h-273z" />
<glyph unicode="&#xa9;" horiz-adv-x="1704" d="M131 731q0 200 100 375t275 276t377 101q199 0 373.5 -99t276 -275.5t101.5 -377.5q0 -199 -98.5 -373t-272.5 -276t-380 -102q-207 0 -382 103.5t-272.5 276.5t-97.5 371zM254 731q0 -168 83 -312.5t229 -230.5t317 -86q173 0 319.5 87t227.5 231.5t81 310.5 q0 165 -82 310.5t-227.5 232t-318.5 86.5q-168 0 -314.5 -84.5t-230.5 -231t-84 -313.5zM502 727q0 216 113.5 340.5t312.5 124.5q138 0 266 -66l-68 -147q-106 55 -196 55q-113 0 -175.5 -76t-62.5 -231q0 -301 238 -301q47 0 112 16t109 35v-158q-117 -51 -240 -51 q-197 0 -303 123.5t-106 335.5z" />
<glyph unicode="&#xad;" horiz-adv-x="649" d="M47 446l45 203h502l-45 -203h-502z" />
<glyph unicode="&#xae;" horiz-adv-x="1704" d="M131 731q0 200 100 375t275 276t377 101q199 0 373.5 -99t276 -275.5t101.5 -377.5q0 -199 -98.5 -373t-272.5 -276t-380 -102q-207 0 -382 103.5t-272.5 276.5t-97.5 371zM254 731q0 -168 83 -312.5t229 -230.5t317 -86q173 0 319.5 87t227.5 231.5t81 310.5 q0 165 -82 310.5t-227.5 232t-318.5 86.5q-168 0 -314.5 -84.5t-230.5 -231t-84 -313.5zM608 291v878h269q337 0 337 -262q0 -83 -45.5 -145t-130.5 -98l211 -373h-200l-172 325h-91v-325h-178zM786 760h72q84 0 129 36t45 99q0 73 -45.5 101t-128.5 28h-72v-264z" />
<glyph unicode="&#xb4;" horiz-adv-x="1135" d="M508 1241v25q97 108 225 303h264v-19q-54 -66 -158 -161.5t-175 -147.5h-156z" />
<glyph unicode="&#x2000;" horiz-adv-x="784" />
<glyph unicode="&#x2001;" horiz-adv-x="1569" />
<glyph unicode="&#x2002;" horiz-adv-x="784" />
<glyph unicode="&#x2003;" horiz-adv-x="1569" />
<glyph unicode="&#x2004;" horiz-adv-x="523" />
<glyph unicode="&#x2005;" horiz-adv-x="392" />
<glyph unicode="&#x2006;" horiz-adv-x="261" />
<glyph unicode="&#x2007;" horiz-adv-x="261" />
<glyph unicode="&#x2008;" horiz-adv-x="196" />
<glyph unicode="&#x2009;" horiz-adv-x="313" />
<glyph unicode="&#x200a;" horiz-adv-x="87" />
<glyph unicode="&#x2010;" horiz-adv-x="649" d="M47 446l45 203h502l-45 -203h-502z" />
<glyph unicode="&#x2011;" horiz-adv-x="649" d="M47 446l45 203h502l-45 -203h-502z" />
<glyph unicode="&#x2012;" horiz-adv-x="649" d="M47 446l45 203h502l-45 -203h-502z" />
<glyph unicode="&#x2013;" horiz-adv-x="983" d="M47 453l43 194h838l-43 -194h-838z" />
<glyph unicode="&#x2014;" horiz-adv-x="1966" d="M47 453l43 194h1821l-43 -194h-1821z" />
<glyph unicode="&#x2018;" horiz-adv-x="393" d="M119 983q34 76 106.5 209t159.5 270h176q-122 -286 -199 -501h-237z" />
<glyph unicode="&#x2019;" horiz-adv-x="393" d="M115 961q43 95 106 255t92 246h238l8 -22q-37 -83 -110.5 -217.5t-155.5 -261.5h-178z" />
<glyph unicode="&#x201c;" horiz-adv-x="803" d="M119 983q34 76 106.5 209t159.5 270h176q-122 -286 -199 -501h-237zM526 983q84 190 267 479h176q-122 -286 -199 -501h-235z" />
<glyph unicode="&#x201d;" horiz-adv-x="803" d="M115 961q43 95 106 255t92 246h238l8 -22q-37 -83 -110.5 -217.5t-155.5 -261.5h-178zM522 961q51 114 109 261t90 240h237l9 -22q-98 -220 -269 -479h-176z" />
<glyph unicode="&#x2022;" horiz-adv-x="756" d="M152 684q0 156 83.5 252t223.5 96q100 0 158.5 -54.5t58.5 -168.5q0 -156 -82 -252t-227 -96q-102 0 -158.5 57.5t-56.5 165.5z" />
<glyph unicode="&#x2026;" horiz-adv-x="1634" d="M834 94q0 83 47 132.5t131 49.5q56 0 89.5 -31.5t33.5 -92.5q0 -78 -47.5 -129.5t-124.5 -51.5q-66 0 -97.5 35.5t-31.5 87.5zM594 94q0 83 47 132.5t131 49.5q56 0 89.5 -31.5t33.5 -92.5q0 -78 -47.5 -129.5t-124.5 -51.5q-66 0 -97.5 35.5t-31.5 87.5zM293 94 q0 83 47 132.5t131 49.5q56 0 89.5 -31.5t33.5 -92.5q0 -78 -47.5 -129.5t-124.5 -51.5q-66 0 -97.5 35.5t-31.5 87.5z" />
<glyph unicode="&#x202f;" horiz-adv-x="313" />
<glyph unicode="&#x205f;" horiz-adv-x="392" />
<glyph unicode="&#x20ac;" d="M51 492l33 155h139q15 95 27 139h-137l32 154h148q92 260 255.5 401.5t371.5 141.5q88 0 164.5 -22t156.5 -77l-102 -180q-54 34 -107 56t-119 22q-118 0 -214.5 -87t-161.5 -255h387l-33 -154h-402q-18 -67 -28 -139h340l-33 -155h-319q0 -161 60.5 -234.5t195.5 -73.5 q120 0 258 60v-203q-129 -61 -306 -61q-216 0 -330 130t-114 382h-162z" />
<glyph unicode="&#x2122;" horiz-adv-x="1534" d="M113 1335v127h540v-127h-198v-594h-146v594h-196zM709 741v721h215l170 -534l182 534h205v-721h-146v418l4 121h-6l-184 -539h-119l-178 539h-6l4 -115v-424h-141z" />
<glyph unicode="&#xe000;" horiz-adv-x="1105" d="M0 1105h1105v-1105h-1105v1105z" />
</font>
</defs></svg> 