"Subscribers ID","Email Address",City,"Date of subscription","Is Verified"
10,nishant1@dummyid.com,Chandigarh,"2011-01-21 18:44:42",Verified
23,nishant123@dummyid.com,Chennai,"2011-06-02 15:32:32",Verified
30,test123@dummyid.com,Chandigarh,"2011-06-15 15:42:25",Verified
32,test123@dummyid.com,Chhattishgarh,"2011-06-15 16:01:13",Verified
