"Subscribers ID","Email Address",City,"Date of subscription","Is Verified"
30,test123@dummyid.com,Chandigarh,"2011-06-15 15:42:25",Verified
69,test@dummyid.com,Chandigarh,"2011-11-21 19:26:20",Verified
