"Subscribers ID","Email Address",City,"Date of subscription","Is Verified"
73,nsiahnt@abc.com,"Akron / Canton","2012-01-31 17:29:09",Verified
72,verify@dummyid.com,Chandigarh,"2011-12-07 13:43:01",Verified
70,test@dummyid.com,Delhi,"2011-11-21 20:04:28",Verified
69,test@dummyid.com,Chandigarh,"2011-11-21 19:26:20",Verified
68,test@dummyid.com,Austin,"2011-11-21 14:59:54",Verified
67,test@dummyid.com,Chattanooga,"2011-11-21 14:59:54",Verified
66,test@dummyid.com,"Charleston, SC","2011-11-21 14:59:53",Verified
32,test123@dummyid.com,Chhattishgarh,"2011-06-15 16:01:13",Verified
30,test123@dummyid.com,Chandigarh,"2011-06-15 15:42:25",Verified
23,nishant123@dummyid.com,Chennai,"2011-06-02 15:32:32",Verified
10,nishant1@dummyid.com,Chandigarh,"2011-01-21 18:44:42",Verified
