"User Name","Voucher Code","Email Address",Quantity,"Ordered Date","Gifted to Friend ","Mode of Payment","Payment Status","Voucher Status"
"Nishant Gupta",G1323510040802784,nishant@dummyid.com,1,"2011-12-10 15:10:40",,AuthorizeNet,Paid,Unused
"Nishant Gupta",G1323510040807656,nishant@dummyid.com,1,"2011-12-10 15:10:40",testTipped,AuthorizeNet,Paid,Unused
