"User Name","Voucher Code","Email Address",Quantity,"Ordered Date","Gifted To Friend","Payment Status","Voucher Status"
test,G1343974806732817,test@dummyid.com,1,"2012-08-03 11:50:06",,Paid,Unused
test,G1343479817251637,test@dummyid.com,1,"2012-07-28 18:20:17",,Paid,Used
test,G1343479571585232,test@dummyid.com,1,"2012-07-28 18:16:11",,Paid,Unused
test,G1343479346291672,test@dummyid.com,1,"2012-07-28 18:12:26",,Paid,Unused
test,G1340027171434433,test@dummyid.com,1,"2012-06-18 19:16:11",,Paid,Unused
test,G1335609482293648,test@dummyid.com,1,"2012-04-28 16:08:02",,Paid,Unused
test,G1335592875582198,test@dummyid.com,1,"2012-04-28 11:31:15",,Paid,Unused
test,G1335335232244250,test@dummyid.com,1,"2012-04-25 11:57:12",,Paid,Unused
test,G1335247479311221,test@dummyid.com,1,"2012-04-24 11:34:39",,Paid,Unused
test,G1334922972723247,test@dummyid.com,1,"2012-04-20 17:26:12",,Paid,Unused
test,G1334908921971172,test@dummyid.com,1,"2012-04-20 13:32:01",,Paid,Unused
test,G1334737964783670,test@dummyid.com,1,"2012-04-18 14:02:44",,Paid,Unused
test,G1334643822562403,test@dummyid.com,1,"2012-04-17 11:53:42",,Paid,Unused
testnew,G1334296548572332,testnew@dummyid.com,1,"2012-04-13 11:25:48",,Paid,Unused
testnew,G1334296548575088,testnew@dummyid.com,1,"2012-04-13 11:25:48",,Paid,Unused
test,G1334219731443056,test@dummyid.com,1,"2012-04-12 14:05:31",,Paid,Unused
test,G1334219731445060,test@dummyid.com,1,"2012-04-12 14:05:31",,Paid,Unused
test,G1334218084154131,test@dummyid.com,1,"2012-04-12 13:38:04",,Paid,Unused
test,G1334214841323749,test@dummyid.com,1,"2012-04-12 12:44:01",,Paid,Unused
test,G1334209208704579,test@dummyid.com,1,"2012-04-12 11:10:08",,Paid,Unused
test,G1334208177101650,test@dummyid.com,1,"2012-04-12 10:52:57",,Paid,Unused
test,G1334151930213869,test@dummyid.com,1,"2012-04-11 19:15:30",,Paid,Unused
test,G1334142400755510,test@dummyid.com,1,"2012-04-11 16:36:40",,Paid,Unused
test,G1334142109562450,test@dummyid.com,1,"2012-04-11 16:31:49",,Paid,Unused
test,G1334121068182042,test@dummyid.com,1,"2012-04-11 10:41:08",,Paid,Unused
test,G1334120648643636,test@dummyid.com,1,"2012-04-11 10:34:08",,Paid,Unused
test,G1334066785753874,test@dummyid.com,1,"2012-04-10 19:36:25",,Paid,Unused
test,G1334063941203856,test@dummyid.com,1,"2012-04-10 18:49:01",,Paid,Unused
test,G1334060496141805,test@dummyid.com,1,"2012-04-10 17:51:36",,Paid,Unused
test,G1334060331921980,test@dummyid.com,1,"2012-04-10 17:48:51",,Paid,Unused
test,G1334050977324115,test@dummyid.com,1,"2012-04-10 15:12:57",,Paid,Unused
test,G1334050756342767,test@dummyid.com,1,"2012-04-10 15:09:16",,Paid,Unused
test,G1334050292932563,test@dummyid.com,1,"2012-04-10 15:01:32",,Paid,Unused
test,G1334039764934415,test@dummyid.com,1,"2012-04-10 12:06:04",,Paid,Unused
test,G1333709193891610,test@dummyid.com,1,"2012-04-06 16:16:33",,Paid,Unused
test,G1333709193894289,test@dummyid.com,1,"2012-04-06 16:16:33",,Paid,Unused
test,G1333709193892895,test@dummyid.com,1,"2012-04-06 16:16:33",,Paid,Unused
test,G1333632203823641,test@dummyid.com,1,"2012-04-05 18:53:23",,Paid,Unused
test,G1333631432841796,test@dummyid.com,1,"2012-04-05 18:40:32",,Paid,Unused
test,G1333622571763694,test@dummyid.com,1,"2012-04-05 16:12:51",,"Refund Sent",Expired
test,G1333520650972584,test@dummyid.com,1,"2012-04-04 11:54:10",,Paid,Unused
test,G1333106876827463,test@dummyid.com,1,"2012-03-30 16:57:56",jhygjgjhj,Paid,Unused
test,G1333106876825239,test@dummyid.com,1,"2012-03-30 16:57:56",,Paid,Unused
test,G1332488436641500,test@dummyid.com,1,"2012-03-23 13:10:36",,Paid,Unused
test,G1332488436643088,test@dummyid.com,1,"2012-03-23 13:10:36",,Paid,Unused
test,G1332488436644370,test@dummyid.com,1,"2012-03-23 13:10:36",,Paid,Unused
test,G1332488436645517,test@dummyid.com,1,"2012-03-23 13:10:36",,Paid,Unused
test,G1332488436641346,test@dummyid.com,1,"2012-03-23 13:10:36",,Paid,Unused
test,G1332488436642707,test@dummyid.com,1,"2012-03-23 13:10:36",,Paid,Unused
test,G1332488436644216,test@dummyid.com,1,"2012-03-23 13:10:36",,Paid,Unused
test,G1332488436645361,test@dummyid.com,1,"2012-03-23 13:10:36",,Paid,Unused
test,G1332488436642500,test@dummyid.com,1,"2012-03-23 13:10:36",,Paid,Unused
test,G1332488436643890,test@dummyid.com,1,"2012-03-23 13:10:36",,Paid,Unused
test,G1332488436645257,test@dummyid.com,1,"2012-03-23 13:10:36",,Paid,Unused
test,G1332488436642200,test@dummyid.com,1,"2012-03-23 13:10:36",,Paid,Unused
test,G1332488436643806,test@dummyid.com,1,"2012-03-23 13:10:36",,Paid,Unused
test,G1332488436645067,test@dummyid.com,1,"2012-03-23 13:10:36",,Paid,Unused
test,G1332488436641852,test@dummyid.com,1,"2012-03-23 13:10:36",,Paid,Unused
test,G1332488436643621,test@dummyid.com,1,"2012-03-23 13:10:36",,Paid,Unused
test,G1332488436644836,test@dummyid.com,1,"2012-03-23 13:10:36",,Paid,Unused
test,G1332488436641576,test@dummyid.com,1,"2012-03-23 13:10:36",,Paid,Unused
test,G1332488436643375,test@dummyid.com,1,"2012-03-23 13:10:36",,Paid,Unused
test,G1332488436641527,test@dummyid.com,1,"2012-03-23 13:10:36",,Paid,Unused
test,G1332488436643164,test@dummyid.com,1,"2012-03-23 13:10:36",,Paid,Unused
test,G1332488436644439,test@dummyid.com,1,"2012-03-23 13:10:36",,Paid,Unused
test,G1332488436641425,test@dummyid.com,1,"2012-03-23 13:10:36",,Paid,Unused
test,G1332488436642913,test@dummyid.com,1,"2012-03-23 13:10:36",,Paid,Unused
test,G1332488436644281,test@dummyid.com,1,"2012-03-23 13:10:36",,Paid,Unused
test,G1332488436645487,test@dummyid.com,1,"2012-03-23 13:10:36",,Paid,Unused
test,G1332488436641285,test@dummyid.com,1,"2012-03-23 13:10:36",,Paid,Unused
test,G1332488436642548,test@dummyid.com,1,"2012-03-23 13:10:36",,Paid,Unused
test,G1332488436644007,test@dummyid.com,1,"2012-03-23 13:10:36",,Paid,Unused
test,G1332488436645304,test@dummyid.com,1,"2012-03-23 13:10:36",,Paid,Unused
test,G1332488436642382,test@dummyid.com,1,"2012-03-23 13:10:36",,Paid,Unused
test,G1332488436643822,test@dummyid.com,1,"2012-03-23 13:10:36",,Paid,Unused
test,G1332488436645105,test@dummyid.com,1,"2012-03-23 13:10:36",,Paid,Unused
test,G1332488436642020,test@dummyid.com,1,"2012-03-23 13:10:36",,Paid,Unused
test,G1332488436643724,test@dummyid.com,1,"2012-03-23 13:10:36",,Paid,Unused
test,G1332488436644960,test@dummyid.com,1,"2012-03-23 13:10:36",,Paid,Unused
test,G1332488436641687,test@dummyid.com,1,"2012-03-23 13:10:36",,Paid,Unused
test,G1332488436643400,test@dummyid.com,1,"2012-03-23 13:10:36",,Paid,Unused
test,G1332488436641531,test@dummyid.com,1,"2012-03-23 13:10:36",,Paid,Unused
test,G1332488436643226,test@dummyid.com,1,"2012-03-23 13:10:36",,Paid,Unused
test,G1332488436644601,test@dummyid.com,1,"2012-03-23 13:10:36",,Paid,Unused
test,G1332488436641481,test@dummyid.com,1,"2012-03-23 13:10:36",,Paid,Unused
test,G1332488436643075,test@dummyid.com,1,"2012-03-23 13:10:36",,Paid,Unused
test,G1332488436644345,test@dummyid.com,1,"2012-03-23 13:10:36",,Paid,Unused
test,G1332488436645508,test@dummyid.com,1,"2012-03-23 13:10:36",,Paid,Unused
test,G1332488436641332,test@dummyid.com,1,"2012-03-23 13:10:36",,Paid,Unused
test,G1332488436642614,test@dummyid.com,1,"2012-03-23 13:10:36",,Paid,Unused
test,G1332488436644162,test@dummyid.com,1,"2012-03-23 13:10:36",,Paid,Unused
test,G1332488436645355,test@dummyid.com,1,"2012-03-23 13:10:36",,Paid,Unused
test,G1332488436642409,test@dummyid.com,1,"2012-03-23 13:10:36",,Paid,Unused
test,G1332488436643870,test@dummyid.com,1,"2012-03-23 13:10:36",,Paid,Unused
test,G1332488436645180,test@dummyid.com,1,"2012-03-23 13:10:36",,Paid,Unused
test,G1332488436642068,test@dummyid.com,1,"2012-03-23 13:10:36",,Paid,Unused
test,G1332488436643760,test@dummyid.com,1,"2012-03-23 13:10:36",,Paid,Unused
test,G1332488436645051,test@dummyid.com,1,"2012-03-23 13:10:36",,Paid,Unused
test,G1332488436641816,test@dummyid.com,1,"2012-03-23 13:10:36",,Paid,Unused
test,G1332488436643530,test@dummyid.com,1,"2012-03-23 13:10:36",,Paid,Unused
test,G1332488436644810,test@dummyid.com,1,"2012-03-23 13:10:36",,Paid,Unused
test,G1332488436641569,test@dummyid.com,1,"2012-03-23 13:10:36",,Paid,Unused
test,G1332488436643373,test@dummyid.com,1,"2012-03-23 13:10:36",,Paid,Unused
test,G1332488436641508,test@dummyid.com,1,"2012-03-23 13:10:36",,Paid,Unused
test,G1332488436643142,test@dummyid.com,1,"2012-03-23 13:10:36",,Paid,Unused
test,G1332488436644373,test@dummyid.com,1,"2012-03-23 13:10:36",,Paid,Unused
test,G1332488436641349,test@dummyid.com,1,"2012-03-23 13:10:36",,Paid,Unused
test,G1332488436642760,test@dummyid.com,1,"2012-03-23 13:10:36",,Paid,Unused
test,G1332488436644278,test@dummyid.com,1,"2012-03-23 13:10:36",,Paid,Unused
test,G1332488436645460,test@dummyid.com,1,"2012-03-23 13:10:36",,Paid,Unused
test,G1332488436642547,test@dummyid.com,1,"2012-03-23 13:10:36",,Paid,Unused
test,G1332488436643953,test@dummyid.com,1,"2012-03-23 13:10:36",,Paid,Unused
test,G1332488436645280,test@dummyid.com,1,"2012-03-23 13:10:36",,Paid,Unused
test,G1332488436642310,test@dummyid.com,1,"2012-03-23 13:10:36",,Paid,Unused
test,G1332488436643818,test@dummyid.com,1,"2012-03-23 13:10:36",,Paid,Unused
test,G1332488436645101,test@dummyid.com,1,"2012-03-23 13:10:36",,Paid,Unused
test,G1332488436641976,test@dummyid.com,1,"2012-03-23 13:10:36",,Paid,Unused
test,G1332488436643704,test@dummyid.com,1,"2012-03-23 13:10:36",,Paid,Unused
test,G1332488436644886,test@dummyid.com,1,"2012-03-23 13:10:36",,Paid,Unused
test,G1332488436641630,test@dummyid.com,1,"2012-03-23 13:10:36",,Paid,Unused
test,G1332488436643399,test@dummyid.com,1,"2012-03-23 13:10:36",,Paid,Unused
test,G1332488436641529,test@dummyid.com,1,"2012-03-23 13:10:36",,Paid,Unused
test,G1332488436643175,test@dummyid.com,1,"2012-03-23 13:10:36",,Paid,Unused
test,G1332488436644516,test@dummyid.com,1,"2012-03-23 13:10:36",,Paid,Unused
test,G1332488436641444,test@dummyid.com,1,"2012-03-23 13:10:36",,Paid,Unused
test,G1332488436643002,test@dummyid.com,1,"2012-03-23 13:10:36",,Paid,Unused
test,G1332488436644285,test@dummyid.com,1,"2012-03-23 13:10:36",,Paid,Unused
test,G1332488436645498,test@dummyid.com,1,"2012-03-23 13:10:36",,Paid,Unused
test,G1332488436641291,test@dummyid.com,1,"2012-03-23 13:10:36",,Paid,Unused
test,G1332488436642584,test@dummyid.com,1,"2012-03-23 13:10:36",,Paid,Unused
test,G1332488436644091,test@dummyid.com,1,"2012-03-23 13:10:36",,Paid,Unused
test,G1332488436645327,test@dummyid.com,1,"2012-03-23 13:10:36",,Paid,Unused
test,G1332488436642393,test@dummyid.com,1,"2012-03-23 13:10:36",,Paid,Unused
test,G1332488436643859,test@dummyid.com,1,"2012-03-23 13:10:36",,Paid,Unused
test,G1332488436645125,test@dummyid.com,1,"2012-03-23 13:10:36",,Paid,Unused
test,G1332488436642052,test@dummyid.com,1,"2012-03-23 13:10:36",,Paid,Unused
test,G1332488436643751,test@dummyid.com,1,"2012-03-23 13:10:36",,Paid,Unused
test,G1332488436645028,test@dummyid.com,1,"2012-03-23 13:10:36",,Paid,Unused
test,G1332488436641727,test@dummyid.com,1,"2012-03-23 13:10:36",,Paid,Unused
test,G1332488436643454,test@dummyid.com,1,"2012-03-23 13:10:36",,Paid,Unused
test,G1332488436641564,test@dummyid.com,1,"2012-03-23 13:10:36",,Paid,Unused
test,G1332488436643273,test@dummyid.com,1,"2012-03-23 13:10:36",,Paid,Unused
test,G1332488436644647,test@dummyid.com,1,"2012-03-23 13:10:36",,Paid,Unused
test,G1332420380932492,test@dummyid.com,1,"2012-03-22 18:16:20",,"Refund Sent",Expired
test,G1332420380934327,test@dummyid.com,1,"2012-03-22 18:16:20",,"Refund Sent",Expired
test,G1332420380931181,test@dummyid.com,1,"2012-03-22 18:16:20",,"Refund Sent",Expired
test,G1332420380932215,test@dummyid.com,1,"2012-03-22 18:16:20",,"Refund Sent",Expired
test,G1332420380934167,test@dummyid.com,1,"2012-03-22 18:16:20",,"Refund Sent",Expired
test,G1332420380932028,test@dummyid.com,1,"2012-03-22 18:16:20",,"Refund Sent",Expired
test,G1332420380933866,test@dummyid.com,1,"2012-03-22 18:16:20",,"Refund Sent",Expired
test,G1332420380935271,test@dummyid.com,1,"2012-03-22 18:16:20",,"Refund Sent",Expired
test,G1332420380931715,test@dummyid.com,1,"2012-03-22 18:16:20",,"Refund Sent",Expired
test,G1332420380933559,test@dummyid.com,1,"2012-03-22 18:16:20",,"Refund Sent",Expired
test,G1332420380935078,test@dummyid.com,1,"2012-03-22 18:16:20",,"Refund Sent",Expired
test,G1332420380931633,test@dummyid.com,1,"2012-03-22 18:16:20",,"Refund Sent",Expired
test,G1332420380933243,test@dummyid.com,1,"2012-03-22 18:16:20",,"Refund Sent",Expired
test,G1332420380934781,test@dummyid.com,1,"2012-03-22 18:16:20",,"Refund Sent",Expired
test,G1332420380931436,test@dummyid.com,1,"2012-03-22 18:16:20",,"Refund Sent",Expired
test,G1332420380932991,test@dummyid.com,1,"2012-03-22 18:16:20",,"Refund Sent",Expired
test,G1332420380934511,test@dummyid.com,1,"2012-03-22 18:16:20",,"Refund Sent",Expired
test,G1332420380932535,test@dummyid.com,1,"2012-03-22 18:16:20",,"Refund Sent",Expired
test,G1332420380934359,test@dummyid.com,1,"2012-03-22 18:16:20",,"Refund Sent",Expired
test,G1332420380931315,test@dummyid.com,1,"2012-03-22 18:16:20",,"Refund Sent",Expired
test,G1332420380932363,test@dummyid.com,1,"2012-03-22 18:16:20",,"Refund Sent",Expired
test,G1332420380934219,test@dummyid.com,1,"2012-03-22 18:16:20",,"Refund Sent",Expired
test,G1332420380932057,test@dummyid.com,1,"2012-03-22 18:16:20",,"Refund Sent",Expired
test,G1332420380933935,test@dummyid.com,1,"2012-03-22 18:16:20",,"Refund Sent",Expired
test,G1332420380931821,test@dummyid.com,1,"2012-03-22 18:16:20",,"Refund Sent",Expired
test,G1332420380933660,test@dummyid.com,1,"2012-03-22 18:16:20",,"Refund Sent",Expired
test,G1332420380935147,test@dummyid.com,1,"2012-03-22 18:16:20",,"Refund Sent",Expired
test,G1332420380931642,test@dummyid.com,1,"2012-03-22 18:16:20",,"Refund Sent",Expired
test,G1332420380933509,test@dummyid.com,1,"2012-03-22 18:16:20",,"Refund Sent",Expired
test,G1332420380934846,test@dummyid.com,1,"2012-03-22 18:16:20",,"Refund Sent",Expired
test,G1332420380931550,test@dummyid.com,1,"2012-03-22 18:16:20",,"Refund Sent",Expired
test,G1332420380933069,test@dummyid.com,1,"2012-03-22 18:16:20",,"Refund Sent",Expired
test,G1332420380934738,test@dummyid.com,1,"2012-03-22 18:16:20",,"Refund Sent",Expired
test,G1332420380932628,test@dummyid.com,1,"2012-03-22 18:16:20",,"Refund Sent",Expired
test,G1332420380934454,test@dummyid.com,1,"2012-03-22 18:16:20",,"Refund Sent",Expired
test,G1332420380931411,test@dummyid.com,1,"2012-03-22 18:16:20",,"Refund Sent",Expired
test,G1332420380932379,test@dummyid.com,1,"2012-03-22 18:16:20",,"Refund Sent",Expired
test,G1332420380934285,test@dummyid.com,1,"2012-03-22 18:16:20",,"Refund Sent",Expired
test,G1332420380931170,test@dummyid.com,1,"2012-03-22 18:16:20",,"Refund Sent",Expired
test,G1332420380932145,test@dummyid.com,1,"2012-03-22 18:16:20",,"Refund Sent",Expired
test,G1332420380934040,test@dummyid.com,1,"2012-03-22 18:16:20",,"Refund Sent",Expired
test,G1332420380931968,test@dummyid.com,1,"2012-03-22 18:16:20",,"Refund Sent",Expired
test,G1332420380933792,test@dummyid.com,1,"2012-03-22 18:16:20",,"Refund Sent",Expired
test,G1332420380935269,test@dummyid.com,1,"2012-03-22 18:16:20",,"Refund Sent",Expired
test,G1332420380931675,test@dummyid.com,1,"2012-03-22 18:16:20",,"Refund Sent",Expired
test,G1332420380933543,test@dummyid.com,1,"2012-03-22 18:16:20",,"Refund Sent",Expired
test,G1332420380935075,test@dummyid.com,1,"2012-03-22 18:16:20",,"Refund Sent",Expired
test,G1332420380931593,test@dummyid.com,1,"2012-03-22 18:16:20",,"Refund Sent",Expired
test,G1332420380933238,test@dummyid.com,1,"2012-03-22 18:16:20",,"Refund Sent",Expired
test,G1332420380934780,test@dummyid.com,1,"2012-03-22 18:16:20",,"Refund Sent",Expired
test,G1332420380931430,test@dummyid.com,1,"2012-03-22 18:16:20",,"Refund Sent",Expired
test,G1332420380932973,test@dummyid.com,1,"2012-03-22 18:16:20",,"Refund Sent",Expired
test,G1332420380934475,test@dummyid.com,1,"2012-03-22 18:16:20",,"Refund Sent",Expired
test,G1332420380932515,test@dummyid.com,1,"2012-03-22 18:16:20",,"Refund Sent",Expired
test,G1332420380934339,test@dummyid.com,1,"2012-03-22 18:16:20",,"Refund Sent",Expired
test,G1332420380931226,test@dummyid.com,1,"2012-03-22 18:16:20",,"Refund Sent",Expired
test,G1332420380932288,test@dummyid.com,1,"2012-03-22 18:16:20",,"Refund Sent",Expired
test,G1332420380934198,test@dummyid.com,1,"2012-03-22 18:16:20",,"Refund Sent",Expired
test,G1332420380932040,test@dummyid.com,1,"2012-03-22 18:16:20",,"Refund Sent",Expired
test,G1332420380933885,test@dummyid.com,1,"2012-03-22 18:16:20",,"Refund Sent",Expired
test,G1332420380935427,test@dummyid.com,1,"2012-03-22 18:16:20",,"Refund Sent",Expired
test,G1332420380931803,test@dummyid.com,1,"2012-03-22 18:16:20",,"Refund Sent",Expired
test,G1332420380933633,test@dummyid.com,1,"2012-03-22 18:16:20",,"Refund Sent",Expired
test,G1332420380935140,test@dummyid.com,1,"2012-03-22 18:16:20",,"Refund Sent",Expired
test,G1332420380931635,test@dummyid.com,1,"2012-03-22 18:16:20",,"Refund Sent",Expired
test,G1332420380933484,test@dummyid.com,1,"2012-03-22 18:16:20",,"Refund Sent",Expired
test,G1332420380934797,test@dummyid.com,1,"2012-03-22 18:16:20",,"Refund Sent",Expired
test,G1332420380931463,test@dummyid.com,1,"2012-03-22 18:16:20",,"Refund Sent",Expired
test,G1332420380933063,test@dummyid.com,1,"2012-03-22 18:16:20",,"Refund Sent",Expired
test,G1332420380934550,test@dummyid.com,1,"2012-03-22 18:16:20",,"Refund Sent",Expired
test,G1332420380932537,test@dummyid.com,1,"2012-03-22 18:16:20",,"Refund Sent",Expired
test,G1332420380934401,test@dummyid.com,1,"2012-03-22 18:16:20",,"Refund Sent",Expired
test,G1332420380931333,test@dummyid.com,1,"2012-03-22 18:16:20",,"Refund Sent",Expired
test,G1332420380932368,test@dummyid.com,1,"2012-03-22 18:16:20",,"Refund Sent",Expired
test,G1332420380934266,test@dummyid.com,1,"2012-03-22 18:16:20",,"Refund Sent",Expired
test,G1332420380931133,test@dummyid.com,1,"2012-03-22 18:16:20",,"Refund Sent",Expired
test,G1332420380932074,test@dummyid.com,1,"2012-03-22 18:16:20",,"Refund Sent",Expired
test,G1332420380934038,test@dummyid.com,1,"2012-03-22 18:16:20",,"Refund Sent",Expired
test,G1332420380931928,test@dummyid.com,1,"2012-03-22 18:16:20",,"Refund Sent",Expired
test,G1332420380933753,test@dummyid.com,1,"2012-03-22 18:16:20",,"Refund Sent",Expired
test,G1332420380935163,test@dummyid.com,1,"2012-03-22 18:16:20",,"Refund Sent",Expired
test,G1332420380931660,test@dummyid.com,1,"2012-03-22 18:16:20",,"Refund Sent",Expired
test,G1332420380933527,test@dummyid.com,1,"2012-03-22 18:16:20",,"Refund Sent",Expired
test,G1332420380935059,test@dummyid.com,1,"2012-03-22 18:16:20",,"Refund Sent",Expired
test,G1332420380931573,test@dummyid.com,1,"2012-03-22 18:16:20",,"Refund Sent",Expired
test,G1332420380933091,test@dummyid.com,1,"2012-03-22 18:16:20",,"Refund Sent",Expired
test,G1332420380934748,test@dummyid.com,1,"2012-03-22 18:16:20",,"Refund Sent",Expired
test,G1332420380932955,test@dummyid.com,1,"2012-03-22 18:16:20",,"Refund Sent",Expired
test,G1332420380934457,test@dummyid.com,1,"2012-03-22 18:16:20",,"Refund Sent",Expired
test,G1332420380931417,test@dummyid.com,1,"2012-03-22 18:16:20",,"Refund Sent",Expired
test,G1332420349265187,test@dummyid.com,1,"2012-03-22 18:15:49",,"Refund Sent",Expired
test,G1332420349261369,test@dummyid.com,1,"2012-03-22 18:15:49",,"Refund Sent",Expired
test,G1332420349265440,test@dummyid.com,1,"2012-03-22 18:15:49",,"Refund Sent",Expired
test,G1332420349262121,test@dummyid.com,1,"2012-03-22 18:15:49",,"Refund Sent",Expired
test,G1332420349264296,test@dummyid.com,1,"2012-03-22 18:15:49",,"Refund Sent",Expired
test,G1332420349261262,test@dummyid.com,1,"2012-03-22 18:15:49",,"Refund Sent",Expired
test,G1332420349265371,test@dummyid.com,1,"2012-03-22 18:15:49",,"Refund Sent",Expired
test,G1332420349261687,test@dummyid.com,1,"2012-03-22 18:15:49",,"Refund Sent",Expired
test,G1332420349262312,test@dummyid.com,1,"2012-03-22 18:15:49",,"Refund Sent",Expired
test,G1332420349261252,test@dummyid.com,1,"2012-03-22 18:15:49",,"Refund Sent",Expired
