"Subscribers ID","Email Address",City,"Date of subscription","Is Verified"
4,testings1@dummyid.com,Caracas,"2013-01-16 18:00:22",Verified
3,testings@dummyid.com,National,"2013-01-16 17:12:08",Verified
2,new@dummyid.com,Atlanta,"2013-01-15 20:24:49",Verified
1,testing@dummyid.com,Atlanta,"2013-01-15 20:19:59",Verified
