"User Name","Voucher Code","Email Address",Quantity,"Ordered Date","Shipping Details","Gifted To Friend","Payment Status","Shipping Status","Voucher Status"
Ayush,G1427440513654870,ayush@dummyid.com,1,"2015-03-27 12:45:13",,,Paid," ",Expired
Ayush,G1427440513655145,ayush@dummyid.com,1,"2015-03-27 12:45:13",,,Paid," ",Unused
Ayush,G1427439036353649,ayush@dummyid.com,1,"2015-03-27 12:20:36",,,Paid," ",Expired
Simmy,G1427117783373525,simmy@dummyid.com,1,"2015-03-23 19:06:23",,,Paid," ",Expired
Simmy,G1427117515894686,simmy@dummyid.com,1,"2015-03-23 19:01:55",,,Paid," ",Expired
Simmy,G1427117431971235,simmy@dummyid.com,1,"2015-03-23 19:00:31",,,Paid," ",Expired
Simmy,G1427108873503469,simmy@dummyid.com,1,"2015-03-23 16:37:53",,,Paid," ",Expired
Simmy,G1427108405242429,simmy@dummyid.com,1,"2015-03-23 16:30:05",,,Paid," ",Expired
Ayush,G1427105117462506,ayush@dummyid.com,1,"2015-03-23 15:35:17",,,Paid," ",Used
Ayush,G1427098556223946,ayush@dummyid.com,1,"2015-03-23 13:45:56",,,Paid," ",Expired
Ayush,G1427098148203486,ayush@dummyid.com,1,"2015-03-23 13:39:08",,,Paid," ",Expired
Sk,G1426945991362844,sk@dummyid.com,1,"2015-03-21 19:23:11",,,Paid," ",Unused
Kaushal,G1426772797302874,kaushal.arwal@fatbit.com,1,"2015-03-19 19:16:37","Test
qq, qqq
All Cities, Alabama, United States",,Paid,Delivered,Used
Kaushal,G1426772797305134,kaushal.arwal@fatbit.com,1,"2015-03-19 19:16:37","Test
qq, qqq
All Cities, Alabama, United States",,Paid,Pending,Unused
Kaushal,G1426744521671682,kaushal.arwal@fatbit.com,1,"2015-03-19 11:25:21","Test
qq, qqq
All Cities, Alabama, United States",,"Refund Sent",Pending
Harper,G1426569086744108,h_singh@dummyid.com,1,"2015-03-17 10:41:26","aa
qq, qqq
TestCity1, American Samoa, United States",,Paid,Delivered,Used
Harper,G1426569086742342,h_singh@dummyid.com,1,"2015-03-17 10:41:26","aa
qq, qqq
TestCity1, American Samoa, United States",,Paid," ",Unused
Harper,G1426512926639023,h_singh@dummyid.com,1,"2015-03-16 19:05:26",,test@dummyid.com,Paid," ",Unused
Harper,G1426512341655387,h_singh@dummyid.com,1,"2015-03-16 18:55:41","aa
qq, qqq
TestCity1, American Samoa, United States",,Paid,Pending,Unused
Harper,G1426511924285306,h_singh@dummyid.com,1,"2015-03-16 18:48:44",,,Paid," ",Unused
Kaushal,G1426509799845506,kaushal.arwal@fatbit.com,1,"2015-03-16 18:13:19",,,Paid," ",Unused
Kaushal,G1426509130614649,kaushal.arwal@fatbit.com,1,"2015-03-16 18:02:10",,,Paid," ",Unused
Kaushal,G1426508731444855,kaushal.arwal@fatbit.com,1,"2015-03-16 17:55:31",,,Paid," ",Unused
Kaushal,G1426502165843110,kaushal.arwal@fatbit.com,1,"2015-03-16 16:06:05","Test
qq, qqq
All Cities, Alabama, United States",,"Refund Sent",Pending
Kaushal,G1426501561143896,kaushal.arwal@fatbit.com,1,"2015-03-16 15:56:01","Test
qq, qqq
All Cities, Alabama, United States",,Paid,Pending,Unused
Kaushal,G1426501284133772,kaushal.arwal@fatbit.com,1,"2015-03-16 15:51:24","Test
qq, qqq
All Cities, Alabama, United States",,Paid,Pending,Unused
Kaushal,G1426500936944745,kaushal.arwal@fatbit.com,1,"2015-03-16 15:45:36","Test
qq, qqq
All Cities, Alabama, United States",,Paid,Pending,Unused
Test,G1426308416807272,test@dummyid.com,1,"2015-03-14 00:16:56",,fg,Paid," ",Used
Test,G1426253588629046,test@dummyid.com,1,"2015-03-13 09:03:08",,fg,"Refund Sent"," "
Kaushal,G1426222246133134,kaushal.arwal@fatbit.com,1,"2015-03-13 00:20:46",,,Paid," ",Unused
Kaushal,G1426166584543188,kaushal.arwal@fatbit.com,1,"2015-03-12 08:53:04",,,Paid,Pending,Unused
Kaushal,G1426166584544217,kaushal.arwal@fatbit.com,1,"2015-03-12 08:53:04",,,Paid,Shipped,Unused
Test,G1425985184142882,test@dummyid.com,1,"2015-03-10 06:29:44",,,Paid," ",Unused
Test,G1425563927142906,test@dummyid.com,1,"2015-03-05 09:28:47",,,Paid," ",Unused
Test,G1425561295243504,test@dummyid.com,1,"2015-03-05 08:44:55",,,Paid," ",Expired
Test,G1425558929285148,test@dummyid.com,1,"2015-03-05 08:05:29",,,Paid," ",Unused
Test,G1425557226333071,test@dummyid.com,1,"2015-03-05 07:37:06",,,Paid," ",Unused
Test,G1425544407154080,test@dummyid.com,1,"2015-03-05 04:03:27",,,Paid," ",Unused
Test,G1425483196454406,test@dummyid.com,1,"2015-03-04 11:03:16",,,"Refund Sent"," ",Expired
Kaushal,G1424930044365403,kaushal.arwal@fatbit.com,1,"2015-02-26 01:24:04",,,Paid," ",Expired
Kaushal,G1424867013882811,kaushal.arwal@fatbit.com,1,"2015-02-25 07:53:33",,,Paid," ",Expired
Kaushal,G1424866975894652,kaushal.arwal@fatbit.com,1,"2015-02-25 07:52:55",,,Paid," ",Unused
Test,G1424783743137887,test@dummyid.com,1,"2015-02-24 08:45:43",,shane,Paid," ",Expired
Test,G1424780057394292,test@dummyid.com,1,"2015-02-24 07:44:17",,,Paid," ",Expired
Kaushal,G1424772200711389,kaushal.arwal@fatbit.com,1,"2015-02-24 05:33:20",,,Paid," ",Expired
Test,G1424702520315118,test@dummyid.com,1,"2015-02-23 10:12:00",,,Paid," ",Expired
Kaushal,G1424698289613440,kaushal.arwal@fatbit.com,1,"2015-02-23 09:01:29",,,Paid," ",Expired
Kaushal,G1424698110849465,kaushal.arwal@fatbit.com,1,"2015-02-23 08:58:30",,fg,Paid," ",Expired
Kaushal,G1424696046569837,kaushal.arwal@fatbit.com,1,"2015-02-23 08:24:06",,fg,Paid," ",Expired
Kaushal,G1424424377474889,kaushal.arwal@fatbit.com,1,"2015-02-20 04:56:17",,,Paid," ",Expired
meenu,G1424423361614885,meenu.aggarwal@maxixx.com,1,"2015-02-20 04:39:21",,,Paid," ",Expired
Test,G1424154945441492,test@dummyid.com,1,"2015-02-17 12:05:45",,,Paid," ",Expired
meenu,G1424153834703563,meenu.aggarwal@maxixx.com,1,"2015-02-17 11:47:14",,,Paid," ",Expired
meenu,G1424153834704738,meenu.aggarwal@maxixx.com,1,"2015-02-17 11:47:14",,,Paid," ",Expired
Kaushal,G1424174818203925,kaushal.arwal@fatbit.com,1,"2015-02-17 07:36:58",,,Paid," ",Expired
meenu,G1424095707742037,meenu.aggarwal@maxixx.com,1,"2015-02-16 19:38:27",,,Paid," ",Expired
Meenu,G1424094949653788,mini@dummyid.com,1,"2015-02-16 19:25:49",,,Paid," ",Expired
Meenu,G1424093880613590,mini@dummyid.com,1,"2015-02-16 19:08:00",,,Paid," ",Expired
Meenu,G1424092915524065,mini@dummyid.com,1,"2015-02-16 18:51:55",,,Paid," ",Expired
Meenu,G1424092742863544,mini@dummyid.com,1,"2015-02-16 18:49:02",,,Paid," ",Expired
Meenu,G1424092164881484,mini@dummyid.com,1,"2015-02-16 18:39:24",,,Paid," ",Expired
Sk,G1424074344394476,sk@dummyid.com,1,"2015-02-16 13:42:24",,,Paid," ",Expired
Sachin,G1423836141852054,sachin@dummyid.com,1,"2015-02-13 19:32:21",,,Paid," ",Expired
Sk,G1423836002194031,sk@dummyid.com,1,"2015-02-13 19:30:02",,,Paid," ",Expired
Sachin,G1423835669147527,sachin@dummyid.com,1,"2015-02-13 19:24:29",,sAM,Paid," ",Expired
Sk,G1423804144621487,sk@dummyid.com,1,"2015-02-13 10:39:04",,,Paid," ",Expired
Sk,G1423803870582318,sk@dummyid.com,1,"2015-02-13 10:34:30",,,Paid," ",Expired
Sk,G1423803870582534,sk@dummyid.com,1,"2015-02-13 10:34:30",,,Paid," ",Expired
Sk,G1423803870583537,sk@dummyid.com,1,"2015-02-13 10:34:30",,,Paid," ",Expired
Sk,G1423802749592925,sk@dummyid.com,1,"2015-02-13 10:15:49",,,Paid," ",Expired
Andreas,G1423659808808454,Andreas_Kostler@dummyid.com,1,"2015-02-11 18:33:28",,"test user",Paid," ",Expired
Sk,G1423651077803293,sk@dummyid.com,1,"2015-02-11 16:07:57",,,Paid," ",Expired
Test,G1423647701644060,test@dummyid.com,1,"2015-02-11 15:11:41",,,Paid," ",Expired
meenu,G1423643867212598,fatbittest@gmail.com,1,"2015-02-11 14:07:47",,,Paid," ",Expired
Kaushal,G1423630212383822,kaushal.arwal@fatbit.com,1,"2015-02-11 10:20:12",,,Paid," ",Expired
Test,G1423628106573233,test@dummyid.com,1,"2015-02-11 09:45:06",,,Paid," ",Expired
Kaushal,G1423576579882117,kaushal.arwal@fatbit.com,1,"2015-02-10 19:26:19",,,Paid," ",Expired
Kaushal,G1423571749124716,kaushal.arwal@fatbit.com,1,"2015-02-10 18:05:49",,,Paid," ",Expired
Kaushal,G1423571267252002,kaushal.arwal@fatbit.com,1,"2015-02-10 17:57:47",,,Paid," ",Unused
Kaushal,G1423569857832302,kaushal.arwal@fatbit.com,1,"2015-02-10 17:34:17",,,Paid," ",Expired
Kaushal,G1423568303833444,kaushal.arwal@fatbit.com,1,"2015-02-10 17:08:23",,,Paid," ",Expired
Sk,G1423564706977112,sk@dummyid.com,1,"2015-02-10 16:08:26",,Sunny,Paid," ",Expired
Andreas,G1423504048467082,Andreas_Kostler@dummyid.com,1,"2015-02-09 23:17:28",,test,Paid," ",Expired
Andreas,G1423503562849508,Andreas_Kostler@dummyid.com,1,"2015-02-09 23:09:22",,Test,Paid," ",Expired
Sk,G1423489039684697,sk@dummyid.com,1,"2015-02-09 19:07:19",,,Paid," ",Expired
Test,G1423475315292008,test@dummyid.com,1,"2015-02-09 15:18:35",,,Paid," ",Expired
Test,G1423466698873532,test@dummyid.com,1,"2015-02-09 12:54:58",,,Paid," ",Expired
Test,G1423466698873312,test@dummyid.com,1,"2015-02-09 12:54:58",,,Paid," ",Expired
Test,G1423466698874622,test@dummyid.com,1,"2015-02-09 12:54:58",,,Paid," ",Expired
