"User Name","Voucher Code","Email Address",Quantity,"Ordered Date","Shipping Details","Gifted To Friend","Payment Status","Shipping Status","Voucher Status"
Test,G1452065243822859,test@dummyid.com,1,"2016-01-05 23:27:23",,,Paid," ",Unused
Test,G1452064417174156,test@dummyid.com,1,"2016-01-05 23:13:37",,,Paid," ",Used
Pop,G1448358031283442,pop@dummyid.com,1,"2015-11-24 01:40:31",,,Paid," ",Unused
Test,G1446017299582537,test@dummyid.com,1,"2015-10-28 00:28:19","kaushal
abc, abc2
Coeur D'Alene, Indiana, United States",,Paid,Shipped,Unused
Test,G1444910743241396,test@dummyid.com,1,"2015-10-15 05:05:43",,,Paid,Pending,Unused
hello,G1444895296294693,hello@dummyid.com,1,"2015-10-15 00:48:16",,,Paid,Pending,Unused
hello,G1444728235222219,hello@dummyid.com,1,"2015-10-13 02:23:55","hello
hello, hello
kanas, Kansas, United States",,"Refund Sent",Pending
hello,G1444727633152610,hello@dummyid.com,1,"2015-10-13 02:13:53","hello
hello, hello
kanas, Kansas, United States",,"Refund Sent",Pending
hello,G1444727633154915,hello@dummyid.com,1,"2015-10-13 02:13:53","hello
hello, hello
kanas, Kansas, United States",,"Refund Sent",Pending
hello,G1444726507783159,hello@dummyid.com,1,"2015-10-13 01:55:07","hello
hello, hello
kanas, Kansas, United States",,"Refund Sent",Pending
hello,G1444726507784065,hello@dummyid.com,1,"2015-10-13 01:55:07","hello
hello, hello
kanas, Kansas, United States",,"Refund Sent",Pending
hello,G1444726507784848,hello@dummyid.com,1,"2015-10-13 01:55:07","hello
hello, hello
kanas, Kansas, United States",,"Refund Sent",Pending
hello,G1444726507784556,hello@dummyid.com,1,"2015-10-13 01:55:07","hello
hello, hello
kanas, Kansas, United States",,"Refund Sent",Pending
hello,G1444722387321423,hello@dummyid.com,1,"2015-10-13 00:46:27","hello
hello, hello
kanas, Kansas, United States",,Paid,Pending,Unused
hello,G1444722387321914,hello@dummyid.com,1,"2015-10-13 00:46:27","hello
hello, hello
kanas, Kansas, United States",,Paid,Pending,Unused
hello,G1444722387324786,hello@dummyid.com,1,"2015-10-13 00:46:27","hello
hello, hello
kanas, Kansas, United States",,Paid,Pending,Unused
hello,G1444719214552708,hello@dummyid.com,1,"2015-10-12 23:53:34","hello
hello, hello
kanas, Kansas, United States",,"Refund Sent",Pending
hello,G1444719214552995,hello@dummyid.com,1,"2015-10-12 23:53:34","hello
hello, hello
kanas, Kansas, United States",,"Refund Sent",Pending
Test,G1444673131242542,test@dummyid.com,1,"2015-10-12 11:05:31","kaushal
abc, abc2
Coeur D'Alene, Indiana, United States",,Paid,Pending,Unused
Test,G1444673131242429,test@dummyid.com,1,"2015-10-12 11:05:31","kaushal
abc, abc2
Coeur D'Alene, Indiana, United States",,Paid,Pending,Unused
Test,G1444673131245151,test@dummyid.com,1,"2015-10-12 11:05:31","kaushal
abc, abc2
Coeur D'Alene, Indiana, United States",,Paid,Pending,Unused
Test,G1444656227371987,test@dummyid.com,1,"2015-10-12 06:23:47",,,"Refund Sent"," "
Test,G1444656227372498,test@dummyid.com,1,"2015-10-12 06:23:47",,,"Refund Sent"," "
Test,G1444656227372532,test@dummyid.com,1,"2015-10-12 06:23:47",,,"Refund Sent"," "
Test,G1444656227372692,test@dummyid.com,1,"2015-10-12 06:23:47",,,"Refund Sent"," "
hello,G1444651427942816,hello@dummyid.com,1,"2015-10-12 05:03:47",,,"Refund Sent"," "
hello,G1444651427944568,hello@dummyid.com,1,"2015-10-12 05:03:47",,,"Refund Sent"," "
hello,G1444651090801159,hello@dummyid.com,1,"2015-10-12 04:58:10",,,"Refund Sent"," "
hello,G1444382930404581,hello@dummyid.com,1,"2015-10-09 02:28:50","hello
hello, hello
kanas, Kansas, United States",,Paid,Pending,Unused
Test,G1444331514421192,test@dummyid.com,1,"2015-10-08 12:11:54","kaushal
abc, abc2
Coeur D'Alene, Indiana, United States",,"Refund Sent",Delivered
Test,G1444331514422424,test@dummyid.com,1,"2015-10-08 12:11:54","kaushal
abc, abc2
Coeur D'Alene, Indiana, United States",,"Refund Sent",Delivered
Test,G1444331514423808,test@dummyid.com,1,"2015-10-08 12:11:54","kaushal
abc, abc2
Coeur D'Alene, Indiana, United States",,"Refund Sent",Delivered
Test,G1444331514425482,test@dummyid.com,1,"2015-10-08 12:11:54","kaushal
abc, abc2
Coeur D'Alene, Indiana, United States",,"Refund Sent",Delivered
Test,G1444331514422239,test@dummyid.com,1,"2015-10-08 12:11:54","kaushal
abc, abc2
Coeur D'Alene, Indiana, United States",,"Refund Sent",Delivered
Test,G1444331514422265,test@dummyid.com,1,"2015-10-08 12:11:54","kaushal
abc, abc2
Coeur D'Alene, Indiana, United States",,"Refund Sent",Delivered
Test,G1444331514422531,test@dummyid.com,1,"2015-10-08 12:11:54","kaushal
abc, abc2
Coeur D'Alene, Indiana, United States",,"Refund Sent",Delivered
Test,G1444331514423239,test@dummyid.com,1,"2015-10-08 12:11:54","kaushal
abc, abc2
Coeur D'Alene, Indiana, United States",,"Refund Sent",Delivered
Test,G1444331514424311,test@dummyid.com,1,"2015-10-08 12:11:54","kaushal
abc, abc2
Coeur D'Alene, Indiana, United States",,"Refund Sent",Delivered
Test,G1444331514421411,test@dummyid.com,1,"2015-10-08 12:11:54","kaushal
abc, abc2
Coeur D'Alene, Indiana, United States",,"Refund Sent",Delivered
Test,G1444331514422075,test@dummyid.com,1,"2015-10-08 12:11:54","kaushal
abc, abc2
Coeur D'Alene, Indiana, United States",,"Refund Sent",Delivered
Test,G1444331514423417,test@dummyid.com,1,"2015-10-08 12:11:54","kaushal
abc, abc2
Coeur D'Alene, Indiana, United States",,"Refund Sent",Delivered
Test,G1444331514423425,test@dummyid.com,1,"2015-10-08 12:11:54","kaushal
abc, abc2
Coeur D'Alene, Indiana, United States",,"Refund Sent",Delivered
Test,G1444331514424138,test@dummyid.com,1,"2015-10-08 12:11:54","kaushal
abc, abc2
Coeur D'Alene, Indiana, United States",,"Refund Sent",Delivered
Test,G1444331514424514,test@dummyid.com,1,"2015-10-08 12:11:54","kaushal
abc, abc2
Coeur D'Alene, Indiana, United States",,"Refund Sent",Delivered
Test,G1444221223872283,test@dummyid.com,1,"2015-10-07 05:33:43","kaushal
abc, abc2
columbia, District of Columbia, United States",,Paid,Pending,Unused
hello,G1444028787361708,hello@dummyid.com,1,"2015-10-05 00:06:27",,,Paid," ",Used
hello,G1444028352894060,hello@dummyid.com,1,"2015-10-04 23:59:12",,,Paid," ",Used
Test,G1444027503543665,test@dummyid.com,1,"2015-10-04 23:45:03",,,Paid," ",Expired
Test,G1444027229934748,test@dummyid.com,1,"2015-10-04 23:40:29",,,Paid," ",Expired
hello,G1444020978324376,hello@dummyid.com,1,"2015-10-04 21:56:18",,,Paid," ",Expired
hello,G1444020914704985,hello@dummyid.com,1,"2015-10-04 21:55:14",,,Paid," ",Expired
hello,G1444020500524516,hello@dummyid.com,1,"2015-10-04 21:48:20",,,Paid," ",Expired
Test,G1443863864965181,test@dummyid.com,1,"2015-10-03 02:17:44",,,Paid," ",Used
Test,G1443610181421127,test@dummyid.com,1,"2015-09-30 03:49:41",,,Paid," ",Expired
Test,G1443610181421355,test@dummyid.com,1,"2015-09-30 03:49:41",,,Paid," ",Expired
Test,G1443610181422875,test@dummyid.com,1,"2015-09-30 03:49:41",,,Paid," ",Expired
Test,G1443610181423303,test@dummyid.com,1,"2015-09-30 03:49:41",,,Paid," ",Expired
Test,G1443610181423348,test@dummyid.com,1,"2015-09-30 03:49:41",,,Paid," ",Expired
Test,G1443610181424123,test@dummyid.com,1,"2015-09-30 03:49:41",,,Paid," ",Expired
Test,G1443610181424328,test@dummyid.com,1,"2015-09-30 03:49:41",,,Paid," ",Expired
Test,G1443610181424764,test@dummyid.com,1,"2015-09-30 03:49:41",,,Paid," ",Expired
Test,G1443610181424941,test@dummyid.com,1,"2015-09-30 03:49:41",,,Paid," ",Expired
Test,G1443610181425055,test@dummyid.com,1,"2015-09-30 03:49:41",,,Paid," ",Expired
test7,G1443171776794466,test7@dummyid.com,1,"2015-09-25 02:02:56",,,Paid," ",Expired
test7,G1443167465951376,test7@dummyid.com,1,"2015-09-25 00:51:05",,,Paid," ",Expired
test7,G1443091734325797,test7@dummyid.com,1,"2015-09-24 03:48:54",,test@dummyid.com,"Refund Sent"," "
v3,G1442927059371296,v3@dummyid.com,1,"2015-09-22 06:04:19",,,Paid," ",Unused
v3,G1442927059371741,v3@dummyid.com,1,"2015-09-22 06:04:19",,,Paid," ",Unused
v3,G1442918164592977,v3@dummyid.com,1,"2015-09-22 03:36:04",,,Paid," ",Unused
test77,G1442819034884339,test77@dummyid.com,1,"2015-09-21 00:03:54",,,Paid," ",Expired
v3,G1442812551592126,v3@dummyid.com,1,"2015-09-20 22:15:51",,,Paid," ",Expired
v3,G1442812551592790,v3@dummyid.com,1,"2015-09-20 22:15:51",,,Paid," ",Expired
v3,G1442812551593133,v3@dummyid.com,1,"2015-09-20 22:15:51",,,Paid," ",Expired
v3,G1442812551593785,v3@dummyid.com,1,"2015-09-20 22:15:51",,,Paid," ",Expired
v3,G1442812551595064,v3@dummyid.com,1,"2015-09-20 22:15:51",,,Paid," ",Expired
v3,G1442812535672920,v3@dummyid.com,1,"2015-09-20 22:15:35",,,"Refund Sent"," "
v3,G1442812535673062,v3@dummyid.com,1,"2015-09-20 22:15:35",,,Paid," ",Expired
v3,G1442812535673078,v3@dummyid.com,1,"2015-09-20 22:15:35",,,Paid," ",Expired
v3,G1442812486211286,v3@dummyid.com,1,"2015-09-20 22:14:46",,,Paid," ",Expired
v3,G1442812486212509,v3@dummyid.com,1,"2015-09-20 22:14:46",,,Paid," ",Expired
v3,G1442812468791376,v3@dummyid.com,1,"2015-09-20 22:14:28",,,Paid," ",Expired
v3,G1442812468791883,v3@dummyid.com,1,"2015-09-20 22:14:28",,,Paid," ",Expired
v3,G1442812468793911,v3@dummyid.com,1,"2015-09-20 22:14:28",,,Paid," ",Expired
v3,G1442812468794780,v3@dummyid.com,1,"2015-09-20 22:14:28",,,Paid," ",Expired
v3,G1442812468795199,v3@dummyid.com,1,"2015-09-20 22:14:28",,,Paid," ",Expired
v3,G1442812359261845,v3@dummyid.com,1,"2015-09-20 22:12:39",,,Paid," ",Expired
v3,G1442812359264733,v3@dummyid.com,1,"2015-09-20 22:12:39",,,"Refund Sent"," "
v3,G1442812276304405,v3@dummyid.com,1,"2015-09-20 22:11:16",,,Paid," ",Expired
v3,G1442812276301780,v3@dummyid.com,1,"2015-09-20 22:11:16",,,Paid," ",Expired
v3,G1442812276301953,v3@dummyid.com,1,"2015-09-20 22:11:16",,,Paid," ",Expired
v3,G1442812276302424,v3@dummyid.com,1,"2015-09-20 22:11:16",,,"Refund Sent"," "
v3,G1442812276303101,v3@dummyid.com,1,"2015-09-20 22:11:16",,,Paid," ",Expired
v3,G1442812276304475,v3@dummyid.com,1,"2015-09-20 22:11:16",,,Paid," ",Expired
v3,G1442552966701976,v3@dummyid.com,1,"2015-09-17 22:09:26",,,Paid," ",Expired
v3,G1442551072403927,v3@dummyid.com,1,"2015-09-17 21:37:52",,,Paid," ",Expired
v3,G1442481169652405,v3@dummyid.com,1,"2015-09-17 02:12:49",,,Paid," ",Unused
v3,G1442471543694442,v3@dummyid.com,1,"2015-09-16 23:32:23",,,Paid," ",Expired
v3,G1442399615603041,v3@dummyid.com,1,"2015-09-16 03:33:35",,,Paid," ",Expired
hello,G1442207759663684,hello@dummyid.com,1,"2015-09-13 22:15:59",,,Paid," ",Expired
test0,G1441627751695117,test0@dummyid.com,1,"2015-09-07 05:09:11",,,Paid," ",Expired
test0,G1441627659211404,test0@dummyid.com,1,"2015-09-07 05:07:39",,,Paid," ",Expired
test0,G1441622374142514,test0@dummyid.com,1,"2015-09-07 03:39:34",,,Paid," ",Expired
test0,G1441619007142161,test0@dummyid.com,1,"2015-09-07 02:43:27",,,Paid," ",Expired
