"Business ID","Client Name","Client Email","Client Phone","Business Name","Business Website","Business Zip","Business Country","Business Type","Address of the business","About Business and Partner"
1,test,test@dummyid.com,1234567890,test,test.com,123456,Venezuela,"Beauty,Electronics",test,test
2,Kaushal,kaushal.arwal@fatbit.com,987654321,"New Business",,143001,"United Kingdom",Electronics,"Address Information","Address Information"
3,helolo,admin@dummyid.com,9663251455,asdf,gkjg,163354,India,"Footwear,Kids,Travel",admin@dummyid.com,admin@dummyid.com
